
first-iter-drf.cu: error: possible write-write race on x[0]:

Write by thread 0 in thread block 0 (global id 0), first-iter-drf.cu:20:24:
  x[threadIdx.x] = y;

Write by thread 16 in thread block 0 (global id 16), first-iter-drf.cu:20:24:
  x[threadIdx.x] = y;

Bitwise values of parameters of 'kernel':
 n = 3

GPUVerify kernel analyser finished with 0 verified, 1 error
