kernel.opt.bc: warning: Assuming the arguments 'data_in_pos', 'data_in_vel', 'data_out_pos', 'data_out_vel' of 'kernel' on line 30 of kernel.cu to be non-aliased; please consider adding a restrict qualifier to these arguments
GPUVerify kernel analyser finished with 1 verified, 0 errors
Verified: kernel.cu
- no data races within thread blocks
- no barrier divergence
- no assertion failures
(but absolutely no warranty provided)
