"/artifact/datasets/gpuverify-cav14/pug/CUDA50/6_Advanced/threadFenceReduction/reduceMultiPass.c", line 120: error: 
          identifier "true" is undefined
          if (nIsPow2 || i + blockSize < n)
              ^

"/artifact/datasets/gpuverify-cav14/pug/CUDA50/6_Advanced/threadFenceReduction/reduceMultiPass.c", line 86: warning: 
          function "kernel" was declared but never referenced
  __global__ void kernel (const float* g_idata, float* g_odata, unsigned int n) {
                  ^

terminate called after throwing an instance of 'rose_exception'
  what():  Errors in Processing: (frontend_failed)
/artifact/tools/pug-v0.2_x64/pug: line 3: 31936 Aborted                 (core dumped) LD_LIBRARY_PATH="$PREFIX/lib" "$PREFIX/bin/pug" "$@"
