In file included from CUDAkernelShortDCT.cu:5:
./common_short.h:7:9: warning: '__align__' macro redefined [-Wmacro-redefined]
#define __align__(x)
        ^
/artifact/tools/gpuverify-2018-03-22/bugle/include-blang/cuda.h:60:9: note: previous definition is here
#define __align__(n)
        ^
CUDAkernelShortDCT.cu:25:112: warning: '&' within '|' [-Wbitwise-op-parentheses]
    int OffsThrRowPermuted = (OffsThreadInRow & 0xFFFFFFE0) | ((OffsThreadInRow << 1) | (OffsThreadInRow >> 4) & 0x1) & 0x1F;
                                                                                      ~ ~~~~~~~~~~~~~~~~~~~~~~~^~~~~
CUDAkernelShortDCT.cu:25:112: note: place parentheses around the '&' expression to silence this warning
    int OffsThrRowPermuted = (OffsThreadInRow & 0xFFFFFFE0) | ((OffsThreadInRow << 1) | (OffsThreadInRow >> 4) & 0x1) & 0x1F;
                                                                                                               ^
                                                                                        (                           )
CUDAkernelShortDCT.cu:25:119: warning: '&' within '|' [-Wbitwise-op-parentheses]
    int OffsThrRowPermuted = (OffsThreadInRow & 0xFFFFFFE0) | ((OffsThreadInRow << 1) | (OffsThreadInRow >> 4) & 0x1) & 0x1F;
                                                            ~ ~~~~~~~~~~~~~~~~~~~~~~~~~~~~~~~~~~~~~~~~~~~~~~~~~~~~~~~~^~~~~~
CUDAkernelShortDCT.cu:25:119: note: place parentheses around the '&' expression to silence this warning
    int OffsThrRowPermuted = (OffsThreadInRow & 0xFFFFFFE0) | ((OffsThreadInRow << 1) | (OffsThreadInRow >> 4) & 0x1) & 0x1F;
                                                                                                                      ^
                                                              (                                                             )
In file included from CUDAkernelShortDCT.cu:5:
./common_short.h:190:55: warning: unused function 'CUDAshortInplaceIDCT' [-Wunused-function]
__device__ static __attribute__((always_inline)) void CUDAshortInplaceIDCT(short *SrcDst, int Stride)
                                                      ^
./common_short.h:260:55: warning: unused function 'CUDAshortInplaceIDCT' [-Wunused-function]
__device__ static __attribute__((always_inline)) void CUDAshortInplaceIDCT(unsigned int *V8)
                                                      ^
5 warnings generated when compiling for sm_35.
