In file included from d_boxfilter_rgba_x.cu:5:
./common.h:12:1: warning: unused function 'd_boxfilter_x' [-Wunused-function]
d_boxfilter_x(float *id, float *od, int w, int h, int r)
^
./common.h:55:1: warning: unused function 'd_boxfilter_y' [-Wunused-function]
d_boxfilter_y(float *id, float *od, int w, int h, int r)
^
./common.h:106:57: warning: unused function 'rgbaIntToFloat' [-Wunused-function]
__device__ static __attribute__((always_inline)) float4 rgbaIntToFloat(unsigned int c)
                                                        ^
3 warnings generated when compiling for sm_35.

d_boxfilter_rgba_x.cu: error: possible write-write race on od[32804]:

Write by thread 32 in thread block 0 (global id 32), d_boxfilter_rgba_x.cu:44:27:
  od[y * w + x] = rgbaFloatToInt(t * scale);

Write by thread 0 in thread block 0 (global id 0), d_boxfilter_rgba_x.cu:44:27:
  od[y * w + x] = rgbaFloatToInt(t * scale);

Bitwise values of parameters of 'kernel':
 w = 1024
 h = 1024
 r = 4294963236

GPUVerify kernel analyser finished with 0 verified, 1 error
