generateSpectrumKernel.opt.bc: warning: Assuming the arguments 'h0', 'ht' of 'kernel' on line 35 of generateSpectrumKernel.cu to be non-aliased; please consider adding a restrict qualifier to these arguments
GPUVerify kernel analyser finished with 1 verified, 0 errors
Verified: generateSpectrumKernel.cu
- no data races within thread blocks
- no barrier divergence
- no assertion failures
(but absolutely no warranty provided)
