In file included from d_boxfilter_rgba_y.cu:5:
./common.h:12:1: warning: unused function 'd_boxfilter_x' [-Wunused-function]
d_boxfilter_x(float *id, float *od, int w, int h, int r)
^
./common.h:55:1: warning: unused function 'd_boxfilter_y' [-Wunused-function]
d_boxfilter_y(float *id, float *od, int w, int h, int r)
^
2 warnings generated when compiling for sm_35.
d_boxfilter_rgba_y.opt.bc: warning: Assuming the arguments 'id', 'od' of 'kernel' on line 12 of d_boxfilter_rgba_y.cu to be non-aliased; please consider adding a restrict qualifier to these arguments
