In file included from d_boxfilter_y_tex.cu:5:
./common.h:12:1: warning: unused function 'd_boxfilter_x' [-Wunused-function]
d_boxfilter_x(float *id, float *od, int w, int h, int r)
^
./common.h:55:1: warning: unused function 'd_boxfilter_y' [-Wunused-function]
d_boxfilter_y(float *id, float *od, int w, int h, int r)
^
./common.h:94:63: warning: unused function 'rgbaFloatToInt' [-Wunused-function]
__device__ static __attribute__((always_inline)) unsigned int rgbaFloatToInt(float4 rgba)
                                                              ^
./common.h:106:57: warning: unused function 'rgbaIntToFloat' [-Wunused-function]
__device__ static __attribute__((always_inline)) float4 rgbaIntToFloat(unsigned int c)
                                                        ^
4 warnings generated when compiling for sm_35.
GPUVerify kernel analyser finished with 1 verified, 0 errors
Verified: d_boxfilter_y_tex.cu
- no data races within thread blocks
- no barrier divergence
- no assertion failures
(but absolutely no warranty provided)
