[1;31m*** DATA RACE ERROR ***[0m

Array:   flags[0]
T1 mode: W
T2 mode: W

----------------------
 Globals        Value 
----------------------
 blockIdx.x     0 
----------------------
 idx            0 
----------------------
 verticesCount  2 
----------------------

---------------------
 Locals       T1  T2 
---------------------
 threadIdx.x  0   1 
---------------------

