"/artifact/datasets/gpuverify-cav14/pug/CUDA50/6_Advanced/reduction/common.h", line 1: error: 
          this declaration has no storage class or type specifier
  template<class T>
  ^

"/artifact/datasets/gpuverify-cav14/pug/CUDA50/6_Advanced/reduction/common.h", line 1: error: 
          expected a ";"
  template<class T>
          ^

"/artifact/datasets/gpuverify-cav14/pug/CUDA50/6_Advanced/reduction/common.h", line 15: warning: 
          parsing restarts here after previous syntax error
  };
   ^

"/artifact/datasets/gpuverify-cav14/pug/CUDA50/6_Advanced/reduction/common.h", line 19: error: 
          this declaration has no storage class or type specifier
  template<>
  ^

"/artifact/datasets/gpuverify-cav14/pug/CUDA50/6_Advanced/reduction/common.h", line 19: error: 
          expected a ";"
  template<>
          ^

"/artifact/datasets/gpuverify-cav14/pug/CUDA50/6_Advanced/reduction/common.h", line 33: warning: 
          parsing restarts here after previous syntax error
  };
   ^

"/artifact/datasets/gpuverify-cav14/pug/CUDA50/6_Advanced/reduction/reduce5.c", line 87: warning: 
          function "kernel" was declared but never referenced
  __global__ void kernel (T* g_idata, T* g_odata, unsigned int n) {
                  ^

terminate called after throwing an instance of 'rose_exception'
  what():  Errors in Processing: (frontend_failed)
/artifact/tools/pug-v0.2_x64/pug: line 3: 24738 Aborted                 (core dumped) LD_LIBRARY_PATH="$PREFIX/lib" "$PREFIX/bin/pug" "$@"
