VoteAllKernel2.opt.bc: warning: Assuming the arguments 'input', 'result' of 'kernel' on line 14 of VoteAllKernel2.cu to be non-aliased; please consider adding a restrict qualifier to these arguments
GPUVerify kernel analyser finished with 1 verified, 0 errors
Verified: VoteAllKernel2.cu
- no data races within thread blocks
- no barrier divergence
- no assertion failures
(but absolutely no warranty provided)
