WARNING: field lookup converted into 0
WARNING: rewriting function call to 'dot' into 0
WARNING: rewriting boolean function call to 'notShadowRay' into 0
WARNING: Can't handle '(int, int) int' operator '==' converting it to +
Program is data-race free!
