"/artifact/datasets/gpuverify-cav14/pug/CUDA50/6_Advanced/transpose/transposeNaive.c", line 85: warning: 
          function "kernel" was declared but never referenced
  __global__ void kernel (float* odata, float* idata, int width,int height,int nreps) {
                  ^

>>>> start analysis ... 


-------------------------------------------------------
Invalid OVERFLOW_PROTECTION flag in config.txt!
Setting OVERFLOW_PROTECTION flag to on
-------------------------------------------------------

-------------------------------------------------------
Invalid NBITS value in config.txt!
Setting NBITS value to 10
-------------------------------------------------------

-------------------------------------------------------
Invalid USE_INCRSMT flag in config.txt!
Setting USE_INCRSMT flag to false
-------------------------------------------------------


-------------------------------------------------------
Invalid USE_LOOP_REFINEMENT flag in config.txt!
Setting USE_LOOP_REFINEMENT flag to true
-------------------------------------------------------


-------------------------------------------------------
Invalid SLICE_ARRAYS flag in config.txt!
Setting SLICE_ARRAYS flag to true
-------------------------------------------------------


-------------------------------------------------------
Invalid USE_ASSUMES flag in config.txt!
Setting USE_ASSUMES flag to true
-------------------------------------------------------


-------------------------------------------------------
Invalid CHK_BANK_CONFLICTS option in config.txt!
Setting CHK_BANK_CONFLICTS option to false
-------------------------------------------------------

Debug level (verbosity) set to 0


Processing function: kernel

FunctionCall: assume((width == 1024))
Assuming width0 == 1024

FunctionCall: assume((height == 1024))
Assuming height0 == 1024

FunctionCall: assume((nreps == 1))
Assuming nreps0 == 1

FunctionCall: assume(((blockDim.x) ==(16)))
Assuming bdim.x == 16

FunctionCall: assume(((blockDim.y) ==(16)))
Assuming bdim.y == 16

FunctionCall: assume(((gridDim.x) ==(64)))
Assuming gdim.x == 64

FunctionCall: assume(((gridDim.y) ==(64)))
Assuming gdim.y == 64
containBarrierFlag = 0
incrExpr = r++
------------- Already normalized 
rangeExpr = ((!1^r0 >= 0) && (!1^r0 <= (nreps0 - 1))); substExpr = 
containBarrierFlag = 0
incrExpr = i += 16
rhs = 16SgIntVal
------------- Linear incrExpr
var = !2^i0; lb = 0; ub = (16 - 1); stride = 16
rangeExpr = ((0 <= (16 - 1)) && ((!2^i0 >= 0) && (!2^i0 <= (((16 - 1) - 0) >> 4)))); substExpr = !2^i1 == ((!2^i0 << 4) + 0)

Binary OP: odata[index_out + i] =(idata[index_in +(i * width)])

Reaching the end of the kernel
satisfiable
(= bid.x 0b0000000000)
(= t1.x 0b0000000001)
(= bid.y 0b0000000000)
(= t1.y 0b0000000000)
(= width0 0b0000000000)
(= yIndex1@t1 0b0000000000)
(= xIndex1@t1 0b0000000001)
(= height0 0b0000000000)
(= !2^i0@t1 0b0000000000)
(= t2.x 0b0000000000)
(= t2.y 0b0000000000)
(= yIndex1@t2 0b0000000000)
(= xIndex1@t2 0b0000000000)
(= !2^i0@t2 0b0000000000)
(= index_out1@t1 0b0000000000)
(= !2^i1@t1 0b0000000000)
(= index_out1@t2 0b0000000000)
(= !2^i1@t2 0b0000000000)
(= bdim.x 0b0000010000)
(= bdim.y 0b0000010000)
(= !1^r0@t1 0b0000000000)
(= !1^r0@t2 0b0000000000)
(= nreps0 0b0000000001)
(= gdim.x 0b0001000000)
(= gdim.y 0b0001000000)
(= index_in1@t1 0b0000000001)
(= index_in1@t2 0b0000000000)

!!!!!!! Found conflict: 
Found Races
solving time = 0.001206s
