"/artifact/datasets/gpuverify-cav14/pug/CUDA50/4_Finance/BlackScholes/BlackScholes.c", line 79: warning: 
          attribute "always_inline" ignored
  __device__ static __attribute__((always_inline)) float cndGPU(float d)
                                   ^

"/artifact/datasets/gpuverify-cav14/pug/CUDA50/4_Finance/BlackScholes/BlackScholes.c", line 79: warning: 
          type qualifier on return type is meaningless
  __device__ static __attribute__((always_inline)) float cndGPU(float d)
                                                         ^

"/artifact/datasets/gpuverify-cav14/pug/CUDA50/4_Finance/BlackScholes/BlackScholes.c", line 101: warning: 
          function "kernel" was declared but never referenced
  __global__ void kernel (float* d_CallResult, float* d_PutResult, float* d_StockPrice, float* d_OptionStrike, float* d_OptionYears, float Riskfree,float Volatility,int optN) {
                  ^

>>>> start analysis ... 


-------------------------------------------------------
Invalid OVERFLOW_PROTECTION flag in config.txt!
Setting OVERFLOW_PROTECTION flag to on
-------------------------------------------------------

-------------------------------------------------------
Invalid NBITS value in config.txt!
Setting NBITS value to 10
-------------------------------------------------------

-------------------------------------------------------
Invalid USE_INCRSMT flag in config.txt!
Setting USE_INCRSMT flag to false
-------------------------------------------------------


-------------------------------------------------------
Invalid USE_LOOP_REFINEMENT flag in config.txt!
Setting USE_LOOP_REFINEMENT flag to true
-------------------------------------------------------


-------------------------------------------------------
Invalid SLICE_ARRAYS flag in config.txt!
Setting SLICE_ARRAYS flag to true
-------------------------------------------------------


-------------------------------------------------------
Invalid USE_ASSUMES flag in config.txt!
Setting USE_ASSUMES flag to true
-------------------------------------------------------


-------------------------------------------------------
Invalid CHK_BANK_CONFLICTS option in config.txt!
Setting CHK_BANK_CONFLICTS option to false
-------------------------------------------------------

Debug level (verbosity) set to 0


Processing function: kernel

FunctionCall: assume((optN == 4000000))
Assuming optN0 == 4000000

FunctionCall: assume(((blockDim.x) ==(128)))
Assuming bdim.x == 128

FunctionCall: assume(((gridDim.x) ==(480)))
Assuming gdim.x == 480
containBarrierFlag = 1
incrExpr = opt += THREAD_N
rhs = THREAD_NSgVarRefExp
------------- Linear incrExpr
var = !1^opt0; lb = tid1; ub = (optN0 - 1); stride = THREAD_N1
rangeExpr = ((tid1 <= (optN0 - 1)) && ((!1^opt0 >= 0) && (!1^opt0 <= (((optN0 - 1) - tid1) / THREAD_N1)))); substExpr = !1^opt1 == ((!1^opt0 * THREAD_N1) + tid1)

Binary OP: sqrtT =((sqrtf((T))))

Binary OP: d1 =((((__logf(((S / X))))) +((R +((0.5f * V) * V)) * T)) /(V * sqrtT))

Binary OP: d2 =(d1 -(V * sqrtT))

Binary OP: CNDD1 = cndGPU(d1)
passing argument: (!2^d0 := !1^d10)

Binary OP: cnd =(1.0f - cnd)
returning: !2^cnd1

Binary OP: CNDD2 = cndGPU(d2)
passing argument: (!3^d0 := !1^d21)

Binary OP: cnd =(1.0f - cnd)
returning: !3^cnd1

Binary OP: expRT =((__expf(((-R * T)))))

Binary OP: d_CallResult[opt] =((S * CNDD1) -((X * expRT) * CNDD2))

Binary OP: d_PutResult[opt] =(((X * expRT) *(1.0f - CNDD2)) -(S *(1.0f - CNDD1)))

Reaching the end of the kernel
Equation: (= (bv-sub (bv-sub optN0 0b0000000001) tid1@t1)
   (bv-add (bv-mul THREAD_N1@t1 v#1) v#0))
Equation: (= (bv-sub (bv-sub optN0 0b0000000001) tid1@t2)
   (bv-add (bv-mul THREAD_N1@t2 v#3) v#2))
unsatisfiable


#####################################################################

No races or synchronization errors were found.

Max instance solving time = 0.001634s
Total solving time = 0.001634s

#####################################################################

