nested-loops-29.cpp:110:31: error: indirection requires pointer operand ('unsigned long' invalid)
    cudaMalloc((void**)&out,  * sizeof(float));
                              ^ ~~~~~~~~~~~~~
nested-loops-29.cpp:114:29: error: indirection requires pointer operand ('unsigned long' invalid)
    cudaMalloc((void**)&a,  * sizeof(float));
                            ^ ~~~~~~~~~~~~~
nested-loops-29.cpp:118:29: error: indirection requires pointer operand ('unsigned long' invalid)
    cudaMalloc((void**)&b,  * sizeof(float));
                            ^ ~~~~~~~~~~~~~
3 errors generated.
Configuration: concurrency bug checking level is: 2
KLEE: ERROR: error loading program 'gklee/nested-loops-29.bc': No such file or directory
RUN /opt/gklee/gklee-nvcc gklee/nested-loops-29.cu -o gklee/nested-loops-29.bc
RUN /opt/gklee/gklee --symbolic-config gklee/nested-loops-29.bc
DEL /home/verify/datasets/micro-benchmarks/nested-loops-29.cpp
DEL /home/verify/datasets/micro-benchmarks/nested-loops-29.kernelSet.txt
DEL flowsGraph.dot
