Configuration: concurrency bug checking level is: 2
KLEE: output directory = "klee-out-0"
KLEE: WARNING: undefined reference to function: __clear_device
KLEE: WARNING: undefined reference to function: __clear_host
KLEE: WARNING: undefined reference to function: __set_CUDAConfig
KLEE: WARNING: undefined reference to function: __set_device
KLEE: WARNING: undefined reference to function: __set_host
KLEE: WARNING: undefined reference to variable: blockDim
KLEE: WARNING: undefined reference to variable: threadIdx

[GKLEE]: The configuration, Grid: <1, 1, 1>, Block: <64, 1, 1>
KLEE: WARNING: flushing 16384 bytes on read, may be slow and/or crash: MO28[16384] allocated at cudaMalloc():  %1 = tail call noalias i8* @malloc(i64 %size) nounwind, !dbg !718

[GKLEE]: Start executing a GPU kernel 

Thread 0 reaches a barrier: moving to the next thread.

[GKLEE]: ********** (Symbolic Configuration) Start checking bank conflicts at SharedMemory  **********
[GKLEE]: The read set is empty in bank conflict checking for capability 2.x
[GKLEE]: The write set is empty in bank conflict checking for capability 2.x
[GKLEE]: ********** No Bank Conflict found at this SharedMemory **********

[GKLEE]: ********** (Symbolic Configuration) Start checking coalesced device memory access at capability: 2.x **********
[GKLEE]: ********** All memory accesses are coalesced at capability: 2.x **********

[GKLEE]: ********** (Symbolic Configuration) Start checking warp divergence  **********
[GKLEE]: ********** Warp Divergence not found for this kernel **********

[GKLEE]: ********** (Symbolic Config) Start checking missed volatile at SharedMemory  ********** 
[GKLEE]: ********** No 'Volatile' Qualifier Missed at this SharedMemory **********

[GKLEE]: ********** (Symbolic Config) Start checking races at SharedMemory  **********
[GKLEE]: ++++++++++ Read-Write race checking (Pure Canonical Schedule) ++++++++++
[GKLEE]: ++++++++++ Write-Write race checking (Pure Canonical Schedule) ++++++++++
[GKLEE]: ********** no races found at SharedMemory ***********

[GKLEE]: ********** (Symbolic Config) Start checking races at DeviceMemory (Within Same Block)  **********
[GKLEE]: ++++++++++ Read-Write race checking (Pure Canonical Schedule) ++++++++++
[GKLEE]: ++++++++++ Write-Write race checking (Pure Canonical Schedule) ++++++++++

[GKLEE]: ********** (Symbolic Config) Checking races at DeviceMemory (Across Blocks) not allowed (number of block > 1)  **********
[GKLEE]: ********* no races found at DeviceMemory **********
[GKLEE]: Within the current Barrier Interval, 1 flows are used to represent all threads !

[GKLEE]: Finish executing a GPU kernel 

[GKLEE]: GPU Execution time: 4.8844s
[GKLEE]: In Barrier Interval 1, Elapsed time for symbolic configuration (Parametric Flow): 4.87034

[GKLEE]: Finishing the program!
 path num explored here (symbolic config): 1
<BI: 1, Time: 4.87034>
Under symbolic configuration, Across 1 BIs, Total Time: 4.87034
After exploring 1 paths, the average exploration time (symbolic) is 4.87034s, the total execution time: 4.87034s
********** No Bank Conflict found **********
********** Memory Coalescing found **********
********** No Warp Divergence found **********
********** No Volatile Missed found *********
********** No Race found **********

KLEE: done: total instructions = 1107
KLEE: done: completed paths = 1
KLEE: done: generated tests = 1
RUN /opt/gklee/gklee-nvcc gklee/accs-30.cu -o gklee/accs-30.bc
RUN /opt/gklee/sesa gklee/accs-30.bc -o gklee/accs-30.sesa
RUN /opt/gklee/gklee --symbolic-config --race-prune gklee/accs-30.sesa
DEL gklee/accs-30.bc
DEL gklee/accs-30.sesa
DEL /home/verify/datasets/micro-benchmarks/accs-30.cpp
DEL /home/verify/datasets/micro-benchmarks/accs-30.kernelSet.txt
DEL /home/verify/datasets/micro-benchmarks/flowsGraph.dot
DEL gklee/klee-last
DEL /home/verify/datasets/micro-benchmarks/summary.txt
DEL gklee/klee-out-0
