nested-loops-sync-35.cpp:163:31: error: indirection requires pointer operand ('unsigned long' invalid)
    cudaMalloc((void**)&out,  * sizeof(float));
                              ^ ~~~~~~~~~~~~~
nested-loops-sync-35.cpp:167:29: error: indirection requires pointer operand ('unsigned long' invalid)
    cudaMalloc((void**)&a,  * sizeof(float));
                            ^ ~~~~~~~~~~~~~
nested-loops-sync-35.cpp:171:29: error: indirection requires pointer operand ('unsigned long' invalid)
    cudaMalloc((void**)&b,  * sizeof(float));
                            ^ ~~~~~~~~~~~~~
3 errors generated.
opt: gklee/nested-loops-sync-35.bc: error: Could not open input file: No such file or directory
RUN /opt/gklee/gklee-nvcc gklee/nested-loops-sync-35.cu -o gklee/nested-loops-sync-35.bc
RUN /opt/gklee/sesa gklee/nested-loops-sync-35.bc -o gklee/nested-loops-sync-35.sesa
DEL /home/verify/datasets/micro-benchmarks/nested-loops-sync-35.cpp
DEL /home/verify/datasets/micro-benchmarks/nested-loops-sync-35.kernelSet.txt
