Configuration: concurrency bug checking level is: 2
KLEE: output directory = "klee-out-0"
KLEE: WARNING: undefined reference to function: __clear_device
KLEE: WARNING: undefined reference to function: __clear_host
KLEE: WARNING: undefined reference to function: __set_CUDAConfig
KLEE: WARNING: undefined reference to function: __set_device
KLEE: WARNING: undefined reference to function: __set_host
KLEE: WARNING: undefined reference to variable: threadIdx

[GKLEE]: The configuration, Grid: <1, 1, 1>, Block: <64, 1, 1>

[GKLEE]: Start executing a GPU kernel 

[GKLEE]: create new parametric flow: 2
[GKLEE]: keep using the current flow: 0
[GKLEE]: keep using the current flow: 0
[GKLEE]: keep using the current flow: 0
[GKLEE]: keep using the current flow: 0
[GKLEE]: keep using the current flow: 0
[GKLEE]: keep using the current flow: 0
[GKLEE]: keep using the current flow: 0
[GKLEE]: keep using the current flow: 0
[GKLEE]: keep using the current flow: 0
[GKLEE]: keep using the current flow: 0
[GKLEE]: keep using the current flow: 0
[GKLEE]: keep using the current flow: 0
[GKLEE]: keep using the current flow: 0
[GKLEE]: keep using the current flow: 0
[GKLEE]: keep using the current flow: 0
[GKLEE]: keep using the current flow: 0
[GKLEE]: keep using the current flow: 0
[GKLEE]: keep using the current flow: 0
[GKLEE]: keep using the current flow: 0
[GKLEE]: keep using the current flow: 0
[GKLEE]: keep using the current flow: 0
[GKLEE]: keep using the current flow: 0
[GKLEE]: keep using the current flow: 0
[GKLEE]: keep using the current flow: 0
[GKLEE]: keep using the current flow: 0
[GKLEE]: keep using the current flow: 0
[GKLEE]: keep using the current flow: 0
[GKLEE]: keep using the current flow: 0
[GKLEE]: keep using the current flow: 0
[GKLEE]: keep using the current flow: 0
[GKLEE]: keep using the current flow: 0
[GKLEE]: keep using the current flow: 0
[GKLEE]: keep using the current flow: 0
[GKLEE]: keep using the current flow: 0
[GKLEE]: keep using the current flow: 0
[GKLEE]: keep using the current flow: 0
[GKLEE]: keep using the current flow: 0
[GKLEE]: keep using the current flow: 0
[GKLEE]: keep using the current flow: 0
[GKLEE]: keep using the current flow: 0
[GKLEE]: keep using the current flow: 0
[GKLEE]: keep using the current flow: 0
[GKLEE]: keep using the current flow: 0
Thread 0 reaches a barrier: moving to the next thread.
[GKLEE]: create new parametric flow: 3
[GKLEE]: keep using the current flow: 2
[GKLEE]: keep using the current flow: 2
[GKLEE]: keep using the current flow: 2
[GKLEE]: keep using the current flow: 2
[GKLEE]: keep using the current flow: 2
[GKLEE]: keep using the current flow: 2
[GKLEE]: keep using the current flow: 2
[GKLEE]: keep using the current flow: 2
[GKLEE]: keep using the current flow: 2
[GKLEE]: keep using the current flow: 2
[GKLEE]: keep using the current flow: 2
[GKLEE]: keep using the current flow: 2
[GKLEE]: keep using the current flow: 2
[GKLEE]: keep using the current flow: 2
[GKLEE]: keep using the current flow: 2
[GKLEE]: keep using the current flow: 2
[GKLEE]: keep using the current flow: 2
[GKLEE]: keep using the current flow: 2
[GKLEE]: keep using the current flow: 2
[GKLEE]: keep using the current flow: 2
[GKLEE]: keep using the current flow: 2
[GKLEE]: keep using the current flow: 2
[GKLEE]: keep using the current flow: 2
[GKLEE]: keep using the current flow: 2
[GKLEE]: keep using the current flow: 2
[GKLEE]: keep using the current flow: 2
[GKLEE]: keep using the current flow: 2
[GKLEE]: keep using the current flow: 2
[GKLEE]: keep using the current flow: 2
[GKLEE]: keep using the current flow: 2
[GKLEE]: keep using the current flow: 2
[GKLEE]: keep using the current flow: 2
[GKLEE]: keep using the current flow: 2
[GKLEE]: keep using the current flow: 2
[GKLEE]: keep using the current flow: 2
[GKLEE]: keep using the current flow: 2
[GKLEE]: keep using the current flow: 2
[GKLEE]: keep using the current flow: 2
[GKLEE]: keep using the current flow: 2
[GKLEE]: keep using the current flow: 2
[GKLEE]: keep using the current flow: 2
[GKLEE]: keep using the current flow: 2
Thread 2 reaches a barrier: moving to the next thread.
[GKLEE]: create new parametric flow: 4
[GKLEE]: keep using the current flow: 3
[GKLEE]: keep using the current flow: 3
[GKLEE]: keep using the current flow: 3
[GKLEE]: keep using the current flow: 3
[GKLEE]: keep using the current flow: 3
[GKLEE]: keep using the current flow: 3
[GKLEE]: keep using the current flow: 3
[GKLEE]: keep using the current flow: 3
[GKLEE]: keep using the current flow: 3
[GKLEE]: keep using the current flow: 3
[GKLEE]: keep using the current flow: 3
[GKLEE]: keep using the current flow: 3
[GKLEE]: keep using the current flow: 3
[GKLEE]: keep using the current flow: 3
[GKLEE]: keep using the current flow: 3
[GKLEE]: keep using the current flow: 3
[GKLEE]: keep using the current flow: 3
[GKLEE]: keep using the current flow: 3
[GKLEE]: keep using the current flow: 3
[GKLEE]: keep using the current flow: 3
[GKLEE]: keep using the current flow: 3
[GKLEE]: keep using the current flow: 3
[GKLEE]: keep using the current flow: 3
[GKLEE]: keep using the current flow: 3
[GKLEE]: keep using the current flow: 3
[GKLEE]: keep using the current flow: 3
[GKLEE]: keep using the current flow: 3
[GKLEE]: keep using the current flow: 3
[GKLEE]: keep using the current flow: 3
[GKLEE]: keep using the current flow: 3
[GKLEE]: keep using the current flow: 3
[GKLEE]: keep using the current flow: 3
[GKLEE]: keep using the current flow: 3
[GKLEE]: keep using the current flow: 3
[GKLEE]: keep using the current flow: 3
[GKLEE]: keep using the current flow: 3
[GKLEE]: keep using the current flow: 3
[GKLEE]: keep using the current flow: 3
[GKLEE]: keep using the current flow: 3
[GKLEE]: keep using the current flow: 3
[GKLEE]: keep using the current flow: 3
Thread 3 reaches a barrier: moving to the next thread.
[GKLEE]: create new parametric flow: 5
[GKLEE]: keep using the current flow: 4
[GKLEE]: keep using the current flow: 4
[GKLEE]: keep using the current flow: 4
[GKLEE]: keep using the current flow: 4
[GKLEE]: keep using the current flow: 4
[GKLEE]: keep using the current flow: 4
[GKLEE]: keep using the current flow: 4
[GKLEE]: keep using the current flow: 4
[GKLEE]: keep using the current flow: 4
[GKLEE]: keep using the current flow: 4
[GKLEE]: keep using the current flow: 4
[GKLEE]: keep using the current flow: 4
[GKLEE]: keep using the current flow: 4
[GKLEE]: keep using the current flow: 4
[GKLEE]: keep using the current flow: 4
[GKLEE]: keep using the current flow: 4
[GKLEE]: keep using the current flow: 4
[GKLEE]: keep using the current flow: 4
[GKLEE]: keep using the current flow: 4
[GKLEE]: keep using the current flow: 4
[GKLEE]: keep using the current flow: 4
[GKLEE]: keep using the current flow: 4
[GKLEE]: keep using the current flow: 4
[GKLEE]: keep using the current flow: 4
[GKLEE]: keep using the current flow: 4
[GKLEE]: keep using the current flow: 4
[GKLEE]: keep using the current flow: 4
[GKLEE]: keep using the current flow: 4
[GKLEE]: keep using the current flow: 4
[GKLEE]: keep using the current flow: 4
[GKLEE]: keep using the current flow: 4
[GKLEE]: keep using the current flow: 4
[GKLEE]: keep using the current flow: 4
[GKLEE]: keep using the current flow: 4
[GKLEE]: keep using the current flow: 4
[GKLEE]: keep using the current flow: 4
[GKLEE]: keep using the current flow: 4
[GKLEE]: keep using the current flow: 4
[GKLEE]: keep using the current flow: 4
[GKLEE]: keep using the current flow: 4
Thread 4 reaches a barrier: moving to the next thread.
[GKLEE]: create new parametric flow: 6
[GKLEE]: keep using the current flow: 5
[GKLEE]: keep using the current flow: 5
[GKLEE]: keep using the current flow: 5
[GKLEE]: keep using the current flow: 5
[GKLEE]: keep using the current flow: 5
[GKLEE]: keep using the current flow: 5
[GKLEE]: keep using the current flow: 5
[GKLEE]: keep using the current flow: 5
[GKLEE]: keep using the current flow: 5
[GKLEE]: keep using the current flow: 5
[GKLEE]: keep using the current flow: 5
[GKLEE]: keep using the current flow: 5
[GKLEE]: keep using the current flow: 5
[GKLEE]: keep using the current flow: 5
[GKLEE]: keep using the current flow: 5
[GKLEE]: keep using the current flow: 5
[GKLEE]: keep using the current flow: 5
[GKLEE]: keep using the current flow: 5
[GKLEE]: keep using the current flow: 5
[GKLEE]: keep using the current flow: 5
[GKLEE]: keep using the current flow: 5
[GKLEE]: keep using the current flow: 5
[GKLEE]: keep using the current flow: 5
[GKLEE]: keep using the current flow: 5
[GKLEE]: keep using the current flow: 5
[GKLEE]: keep using the current flow: 5
[GKLEE]: keep using the current flow: 5
[GKLEE]: keep using the current flow: 5
[GKLEE]: keep using the current flow: 5
[GKLEE]: keep using the current flow: 5
[GKLEE]: keep using the current flow: 5
[GKLEE]: keep using the current flow: 5
[GKLEE]: keep using the current flow: 5
[GKLEE]: keep using the current flow: 5
[GKLEE]: keep using the current flow: 5
[GKLEE]: keep using the current flow: 5
[GKLEE]: keep using the current flow: 5
[GKLEE]: keep using the current flow: 5
[GKLEE]: keep using the current flow: 5
Thread 5 reaches a barrier: moving to the next thread.
[GKLEE]: create new parametric flow: 7
[GKLEE]: keep using the current flow: 6
[GKLEE]: keep using the current flow: 6
[GKLEE]: keep using the current flow: 6
[GKLEE]: keep using the current flow: 6
[GKLEE]: keep using the current flow: 6
[GKLEE]: keep using the current flow: 6
[GKLEE]: keep using the current flow: 6
[GKLEE]: keep using the current flow: 6
[GKLEE]: keep using the current flow: 6
[GKLEE]: keep using the current flow: 6
[GKLEE]: keep using the current flow: 6
[GKLEE]: keep using the current flow: 6
[GKLEE]: keep using the current flow: 6
[GKLEE]: keep using the current flow: 6
[GKLEE]: keep using the current flow: 6
[GKLEE]: keep using the current flow: 6
[GKLEE]: keep using the current flow: 6
[GKLEE]: keep using the current flow: 6
[GKLEE]: keep using the current flow: 6
[GKLEE]: keep using the current flow: 6
[GKLEE]: keep using the current flow: 6
[GKLEE]: keep using the current flow: 6
[GKLEE]: keep using the current flow: 6
[GKLEE]: keep using the current flow: 6
[GKLEE]: keep using the current flow: 6
[GKLEE]: keep using the current flow: 6
[GKLEE]: keep using the current flow: 6
[GKLEE]: keep using the current flow: 6
[GKLEE]: keep using the current flow: 6
[GKLEE]: keep using the current flow: 6
[GKLEE]: keep using the current flow: 6
[GKLEE]: keep using the current flow: 6
[GKLEE]: keep using the current flow: 6
[GKLEE]: keep using the current flow: 6
[GKLEE]: keep using the current flow: 6
[GKLEE]: keep using the current flow: 6
[GKLEE]: keep using the current flow: 6
[GKLEE]: keep using the current flow: 6
Thread 6 reaches a barrier: moving to the next thread.
[GKLEE]: create new parametric flow: 8
[GKLEE]: keep using the current flow: 7
[GKLEE]: keep using the current flow: 7
[GKLEE]: keep using the current flow: 7
[GKLEE]: keep using the current flow: 7
[GKLEE]: keep using the current flow: 7
[GKLEE]: keep using the current flow: 7
[GKLEE]: keep using the current flow: 7
[GKLEE]: keep using the current flow: 7
[GKLEE]: keep using the current flow: 7
[GKLEE]: keep using the current flow: 7
[GKLEE]: keep using the current flow: 7
[GKLEE]: keep using the current flow: 7
[GKLEE]: keep using the current flow: 7
[GKLEE]: keep using the current flow: 7
[GKLEE]: keep using the current flow: 7
[GKLEE]: keep using the current flow: 7
[GKLEE]: keep using the current flow: 7
[GKLEE]: keep using the current flow: 7
[GKLEE]: keep using the current flow: 7
[GKLEE]: keep using the current flow: 7
[GKLEE]: keep using the current flow: 7
[GKLEE]: keep using the current flow: 7
[GKLEE]: keep using the current flow: 7
[GKLEE]: keep using the current flow: 7
[GKLEE]: keep using the current flow: 7
[GKLEE]: keep using the current flow: 7
[GKLEE]: keep using the current flow: 7
[GKLEE]: keep using the current flow: 7
[GKLEE]: keep using the current flow: 7
[GKLEE]: keep using the current flow: 7
[GKLEE]: keep using the current flow: 7
[GKLEE]: keep using the current flow: 7
[GKLEE]: keep using the current flow: 7
[GKLEE]: keep using the current flow: 7
[GKLEE]: keep using the current flow: 7
[GKLEE]: keep using the current flow: 7
[GKLEE]: keep using the current flow: 7
Thread 7 reaches a barrier: moving to the next thread.
[GKLEE]: create new parametric flow: 9
[GKLEE]: keep using the current flow: 8
[GKLEE]: keep using the current flow: 8
[GKLEE]: keep using the current flow: 8
[GKLEE]: keep using the current flow: 8
[GKLEE]: keep using the current flow: 8
[GKLEE]: keep using the current flow: 8
[GKLEE]: keep using the current flow: 8
[GKLEE]: keep using the current flow: 8
[GKLEE]: keep using the current flow: 8
[GKLEE]: keep using the current flow: 8
[GKLEE]: keep using the current flow: 8
[GKLEE]: keep using the current flow: 8
[GKLEE]: keep using the current flow: 8
[GKLEE]: keep using the current flow: 8
[GKLEE]: keep using the current flow: 8
[GKLEE]: keep using the current flow: 8
[GKLEE]: keep using the current flow: 8
[GKLEE]: keep using the current flow: 8
[GKLEE]: keep using the current flow: 8
[GKLEE]: keep using the current flow: 8
[GKLEE]: keep using the current flow: 8
[GKLEE]: keep using the current flow: 8
[GKLEE]: keep using the current flow: 8
[GKLEE]: keep using the current flow: 8
[GKLEE]: keep using the current flow: 8
[GKLEE]: keep using the current flow: 8
[GKLEE]: keep using the current flow: 8
[GKLEE]: keep using the current flow: 8
[GKLEE]: keep using the current flow: 8
[GKLEE]: keep using the current flow: 8
[GKLEE]: keep using the current flow: 8
[GKLEE]: keep using the current flow: 8
[GKLEE]: keep using the current flow: 8
[GKLEE]: keep using the current flow: 8
[GKLEE]: keep using the current flow: 8
[GKLEE]: keep using the current flow: 8
Thread 8 reaches a barrier: moving to the next thread.
[GKLEE]: create new parametric flow: 10
[GKLEE]: keep using the current flow: 9
[GKLEE]: keep using the current flow: 9
[GKLEE]: keep using the current flow: 9
[GKLEE]: keep using the current flow: 9
[GKLEE]: keep using the current flow: 9
[GKLEE]: keep using the current flow: 9
[GKLEE]: keep using the current flow: 9
[GKLEE]: keep using the current flow: 9
[GKLEE]: keep using the current flow: 9
[GKLEE]: keep using the current flow: 9
[GKLEE]: keep using the current flow: 9
[GKLEE]: keep using the current flow: 9
[GKLEE]: keep using the current flow: 9
[GKLEE]: keep using the current flow: 9
[GKLEE]: keep using the current flow: 9
[GKLEE]: keep using the current flow: 9
[GKLEE]: keep using the current flow: 9
[GKLEE]: keep using the current flow: 9
[GKLEE]: keep using the current flow: 9
[GKLEE]: keep using the current flow: 9
[GKLEE]: keep using the current flow: 9
[GKLEE]: keep using the current flow: 9
[GKLEE]: keep using the current flow: 9
[GKLEE]: keep using the current flow: 9
[GKLEE]: keep using the current flow: 9
[GKLEE]: keep using the current flow: 9
[GKLEE]: keep using the current flow: 9
[GKLEE]: keep using the current flow: 9
[GKLEE]: keep using the current flow: 9
[GKLEE]: keep using the current flow: 9
[GKLEE]: keep using the current flow: 9
[GKLEE]: keep using the current flow: 9
[GKLEE]: keep using the current flow: 9
[GKLEE]: keep using the current flow: 9
[GKLEE]: keep using the current flow: 9
Thread 9 reaches a barrier: moving to the next thread.
[GKLEE]: create new parametric flow: 11
[GKLEE]: keep using the current flow: 10
[GKLEE]: keep using the current flow: 10
[GKLEE]: keep using the current flow: 10
[GKLEE]: keep using the current flow: 10
[GKLEE]: keep using the current flow: 10
[GKLEE]: keep using the current flow: 10
[GKLEE]: keep using the current flow: 10
[GKLEE]: keep using the current flow: 10
[GKLEE]: keep using the current flow: 10
[GKLEE]: keep using the current flow: 10
[GKLEE]: keep using the current flow: 10
[GKLEE]: keep using the current flow: 10
[GKLEE]: keep using the current flow: 10
[GKLEE]: keep using the current flow: 10
[GKLEE]: keep using the current flow: 10
[GKLEE]: keep using the current flow: 10
[GKLEE]: keep using the current flow: 10
[GKLEE]: keep using the current flow: 10
[GKLEE]: keep using the current flow: 10
[GKLEE]: keep using the current flow: 10
[GKLEE]: keep using the current flow: 10
[GKLEE]: keep using the current flow: 10
[GKLEE]: keep using the current flow: 10
[GKLEE]: keep using the current flow: 10
[GKLEE]: keep using the current flow: 10
[GKLEE]: keep using the current flow: 10
[GKLEE]: keep using the current flow: 10
[GKLEE]: keep using the current flow: 10
[GKLEE]: keep using the current flow: 10
[GKLEE]: keep using the current flow: 10
[GKLEE]: keep using the current flow: 10
[GKLEE]: keep using the current flow: 10
[GKLEE]: keep using the current flow: 10
[GKLEE]: keep using the current flow: 10
Thread 10 reaches a barrier: moving to the next thread.
[GKLEE]: create new parametric flow: 12
[GKLEE]: keep using the current flow: 11
[GKLEE]: keep using the current flow: 11
[GKLEE]: keep using the current flow: 11
[GKLEE]: keep using the current flow: 11
[GKLEE]: keep using the current flow: 11
[GKLEE]: keep using the current flow: 11
[GKLEE]: keep using the current flow: 11
[GKLEE]: keep using the current flow: 11
[GKLEE]: keep using the current flow: 11
[GKLEE]: keep using the current flow: 11
[GKLEE]: keep using the current flow: 11
[GKLEE]: keep using the current flow: 11
[GKLEE]: keep using the current flow: 11
[GKLEE]: keep using the current flow: 11
[GKLEE]: keep using the current flow: 11
[GKLEE]: keep using the current flow: 11
[GKLEE]: keep using the current flow: 11
[GKLEE]: keep using the current flow: 11
[GKLEE]: keep using the current flow: 11
[GKLEE]: keep using the current flow: 11
[GKLEE]: keep using the current flow: 11
[GKLEE]: keep using the current flow: 11
[GKLEE]: keep using the current flow: 11
[GKLEE]: keep using the current flow: 11
[GKLEE]: keep using the current flow: 11
[GKLEE]: keep using the current flow: 11
[GKLEE]: keep using the current flow: 11
[GKLEE]: keep using the current flow: 11
[GKLEE]: keep using the current flow: 11
[GKLEE]: keep using the current flow: 11
[GKLEE]: keep using the current flow: 11
[GKLEE]: keep using the current flow: 11
[GKLEE]: keep using the current flow: 11
Thread 11 reaches a barrier: moving to the next thread.
[GKLEE]: create new parametric flow: 13
[GKLEE]: keep using the current flow: 12
[GKLEE]: keep using the current flow: 12
[GKLEE]: keep using the current flow: 12
[GKLEE]: keep using the current flow: 12
[GKLEE]: keep using the current flow: 12
[GKLEE]: keep using the current flow: 12
[GKLEE]: keep using the current flow: 12
[GKLEE]: keep using the current flow: 12
[GKLEE]: keep using the current flow: 12
[GKLEE]: keep using the current flow: 12
[GKLEE]: keep using the current flow: 12
[GKLEE]: keep using the current flow: 12
[GKLEE]: keep using the current flow: 12
[GKLEE]: keep using the current flow: 12
[GKLEE]: keep using the current flow: 12
[GKLEE]: keep using the current flow: 12
[GKLEE]: keep using the current flow: 12
[GKLEE]: keep using the current flow: 12
[GKLEE]: keep using the current flow: 12
[GKLEE]: keep using the current flow: 12
[GKLEE]: keep using the current flow: 12
[GKLEE]: keep using the current flow: 12
[GKLEE]: keep using the current flow: 12
[GKLEE]: keep using the current flow: 12
[GKLEE]: keep using the current flow: 12
[GKLEE]: keep using the current flow: 12
[GKLEE]: keep using the current flow: 12
[GKLEE]: keep using the current flow: 12
[GKLEE]: keep using the current flow: 12
[GKLEE]: keep using the current flow: 12
[GKLEE]: keep using the current flow: 12
[GKLEE]: keep using the current flow: 12
Thread 12 reaches a barrier: moving to the next thread.
[GKLEE]: create new parametric flow: 14
[GKLEE]: keep using the current flow: 13
[GKLEE]: keep using the current flow: 13
[GKLEE]: keep using the current flow: 13
[GKLEE]: keep using the current flow: 13
[GKLEE]: keep using the current flow: 13
[GKLEE]: keep using the current flow: 13
[GKLEE]: keep using the current flow: 13
[GKLEE]: keep using the current flow: 13
[GKLEE]: keep using the current flow: 13
[GKLEE]: keep using the current flow: 13
[GKLEE]: keep using the current flow: 13
[GKLEE]: keep using the current flow: 13
[GKLEE]: keep using the current flow: 13
[GKLEE]: keep using the current flow: 13
[GKLEE]: keep using the current flow: 13
[GKLEE]: keep using the current flow: 13
[GKLEE]: keep using the current flow: 13
[GKLEE]: keep using the current flow: 13
[GKLEE]: keep using the current flow: 13
[GKLEE]: keep using the current flow: 13
[GKLEE]: keep using the current flow: 13
[GKLEE]: keep using the current flow: 13
[GKLEE]: keep using the current flow: 13
[GKLEE]: keep using the current flow: 13
[GKLEE]: keep using the current flow: 13
[GKLEE]: keep using the current flow: 13
[GKLEE]: keep using the current flow: 13
[GKLEE]: keep using the current flow: 13
[GKLEE]: keep using the current flow: 13
[GKLEE]: keep using the current flow: 13
[GKLEE]: keep using the current flow: 13
Thread 13 reaches a barrier: moving to the next thread.
[GKLEE]: create new parametric flow: 15
[GKLEE]: keep using the current flow: 14
[GKLEE]: keep using the current flow: 14
[GKLEE]: keep using the current flow: 14
[GKLEE]: keep using the current flow: 14
[GKLEE]: keep using the current flow: 14
[GKLEE]: keep using the current flow: 14
[GKLEE]: keep using the current flow: 14
[GKLEE]: keep using the current flow: 14
[GKLEE]: keep using the current flow: 14
[GKLEE]: keep using the current flow: 14
[GKLEE]: keep using the current flow: 14
[GKLEE]: keep using the current flow: 14
[GKLEE]: keep using the current flow: 14
[GKLEE]: keep using the current flow: 14
[GKLEE]: keep using the current flow: 14
[GKLEE]: keep using the current flow: 14
[GKLEE]: keep using the current flow: 14
[GKLEE]: keep using the current flow: 14
[GKLEE]: keep using the current flow: 14
[GKLEE]: keep using the current flow: 14
[GKLEE]: keep using the current flow: 14
[GKLEE]: keep using the current flow: 14
[GKLEE]: keep using the current flow: 14
[GKLEE]: keep using the current flow: 14
[GKLEE]: keep using the current flow: 14
[GKLEE]: keep using the current flow: 14
[GKLEE]: keep using the current flow: 14
[GKLEE]: keep using the current flow: 14
[GKLEE]: keep using the current flow: 14
[GKLEE]: keep using the current flow: 14
Thread 14 reaches a barrier: moving to the next thread.
[GKLEE]: create new parametric flow: 16
[GKLEE]: keep using the current flow: 15
[GKLEE]: keep using the current flow: 15
[GKLEE]: keep using the current flow: 15
[GKLEE]: keep using the current flow: 15
[GKLEE]: keep using the current flow: 15
[GKLEE]: keep using the current flow: 15
[GKLEE]: keep using the current flow: 15
[GKLEE]: keep using the current flow: 15
[GKLEE]: keep using the current flow: 15
[GKLEE]: keep using the current flow: 15
[GKLEE]: keep using the current flow: 15
[GKLEE]: keep using the current flow: 15
[GKLEE]: keep using the current flow: 15
[GKLEE]: keep using the current flow: 15
[GKLEE]: keep using the current flow: 15
[GKLEE]: keep using the current flow: 15
[GKLEE]: keep using the current flow: 15
[GKLEE]: keep using the current flow: 15
[GKLEE]: keep using the current flow: 15
[GKLEE]: keep using the current flow: 15
[GKLEE]: keep using the current flow: 15
[GKLEE]: keep using the current flow: 15
[GKLEE]: keep using the current flow: 15
[GKLEE]: keep using the current flow: 15
[GKLEE]: keep using the current flow: 15
[GKLEE]: keep using the current flow: 15
[GKLEE]: keep using the current flow: 15
[GKLEE]: keep using the current flow: 15
[GKLEE]: keep using the current flow: 15
Thread 15 reaches a barrier: moving to the next thread.
[GKLEE]: create new parametric flow: 17
[GKLEE]: keep using the current flow: 16
[GKLEE]: keep using the current flow: 16
[GKLEE]: keep using the current flow: 16
[GKLEE]: keep using the current flow: 16
[GKLEE]: keep using the current flow: 16
[GKLEE]: keep using the current flow: 16
[GKLEE]: keep using the current flow: 16
[GKLEE]: keep using the current flow: 16
[GKLEE]: keep using the current flow: 16
[GKLEE]: keep using the current flow: 16
[GKLEE]: keep using the current flow: 16
[GKLEE]: keep using the current flow: 16
[GKLEE]: keep using the current flow: 16
[GKLEE]: keep using the current flow: 16
[GKLEE]: keep using the current flow: 16
[GKLEE]: keep using the current flow: 16
[GKLEE]: keep using the current flow: 16
[GKLEE]: keep using the current flow: 16
[GKLEE]: keep using the current flow: 16
[GKLEE]: keep using the current flow: 16
[GKLEE]: keep using the current flow: 16
[GKLEE]: keep using the current flow: 16
[GKLEE]: keep using the current flow: 16
[GKLEE]: keep using the current flow: 16
[GKLEE]: keep using the current flow: 16
[GKLEE]: keep using the current flow: 16
[GKLEE]: keep using the current flow: 16
[GKLEE]: keep using the current flow: 16
Thread 16 reaches a barrier: moving to the next thread.
[GKLEE]: create new parametric flow: 18
[GKLEE]: keep using the current flow: 17
[GKLEE]: keep using the current flow: 17
[GKLEE]: keep using the current flow: 17
[GKLEE]: keep using the current flow: 17
[GKLEE]: keep using the current flow: 17
[GKLEE]: keep using the current flow: 17
[GKLEE]: keep using the current flow: 17
[GKLEE]: keep using the current flow: 17
[GKLEE]: keep using the current flow: 17
[GKLEE]: keep using the current flow: 17
[GKLEE]: keep using the current flow: 17
[GKLEE]: keep using the current flow: 17
[GKLEE]: keep using the current flow: 17
[GKLEE]: keep using the current flow: 17
[GKLEE]: keep using the current flow: 17
[GKLEE]: keep using the current flow: 17
[GKLEE]: keep using the current flow: 17
[GKLEE]: keep using the current flow: 17
[GKLEE]: keep using the current flow: 17
[GKLEE]: keep using the current flow: 17
[GKLEE]: keep using the current flow: 17
[GKLEE]: keep using the current flow: 17
[GKLEE]: keep using the current flow: 17
[GKLEE]: keep using the current flow: 17
[GKLEE]: keep using the current flow: 17
[GKLEE]: keep using the current flow: 17
[GKLEE]: keep using the current flow: 17
Thread 17 reaches a barrier: moving to the next thread.
[GKLEE]: create new parametric flow: 19
[GKLEE]: keep using the current flow: 18
[GKLEE]: keep using the current flow: 18
[GKLEE]: keep using the current flow: 18
[GKLEE]: keep using the current flow: 18
[GKLEE]: keep using the current flow: 18
[GKLEE]: keep using the current flow: 18
[GKLEE]: keep using the current flow: 18
[GKLEE]: keep using the current flow: 18
[GKLEE]: keep using the current flow: 18
[GKLEE]: keep using the current flow: 18
[GKLEE]: keep using the current flow: 18
[GKLEE]: keep using the current flow: 18
[GKLEE]: keep using the current flow: 18
[GKLEE]: keep using the current flow: 18
[GKLEE]: keep using the current flow: 18
[GKLEE]: keep using the current flow: 18
[GKLEE]: keep using the current flow: 18
[GKLEE]: keep using the current flow: 18
[GKLEE]: keep using the current flow: 18
[GKLEE]: keep using the current flow: 18
[GKLEE]: keep using the current flow: 18
[GKLEE]: keep using the current flow: 18
[GKLEE]: keep using the current flow: 18
[GKLEE]: keep using the current flow: 18
[GKLEE]: keep using the current flow: 18
[GKLEE]: keep using the current flow: 18
Thread 18 reaches a barrier: moving to the next thread.
[GKLEE]: create new parametric flow: 20
[GKLEE]: keep using the current flow: 19
[GKLEE]: keep using the current flow: 19
[GKLEE]: keep using the current flow: 19
[GKLEE]: keep using the current flow: 19
[GKLEE]: keep using the current flow: 19
[GKLEE]: keep using the current flow: 19
[GKLEE]: keep using the current flow: 19
[GKLEE]: keep using the current flow: 19
[GKLEE]: keep using the current flow: 19
[GKLEE]: keep using the current flow: 19
[GKLEE]: keep using the current flow: 19
[GKLEE]: keep using the current flow: 19
[GKLEE]: keep using the current flow: 19
[GKLEE]: keep using the current flow: 19
[GKLEE]: keep using the current flow: 19
[GKLEE]: keep using the current flow: 19
[GKLEE]: keep using the current flow: 19
[GKLEE]: keep using the current flow: 19
[GKLEE]: keep using the current flow: 19
[GKLEE]: keep using the current flow: 19
[GKLEE]: keep using the current flow: 19
[GKLEE]: keep using the current flow: 19
[GKLEE]: keep using the current flow: 19
[GKLEE]: keep using the current flow: 19
[GKLEE]: keep using the current flow: 19
Thread 19 reaches a barrier: moving to the next thread.
[GKLEE]: create new parametric flow: 21
[GKLEE]: keep using the current flow: 20
[GKLEE]: keep using the current flow: 20
[GKLEE]: keep using the current flow: 20
[GKLEE]: keep using the current flow: 20
[GKLEE]: keep using the current flow: 20
[GKLEE]: keep using the current flow: 20
[GKLEE]: keep using the current flow: 20
[GKLEE]: keep using the current flow: 20
[GKLEE]: keep using the current flow: 20
[GKLEE]: keep using the current flow: 20
[GKLEE]: keep using the current flow: 20
[GKLEE]: keep using the current flow: 20
[GKLEE]: keep using the current flow: 20
[GKLEE]: keep using the current flow: 20
[GKLEE]: keep using the current flow: 20
[GKLEE]: keep using the current flow: 20
[GKLEE]: keep using the current flow: 20
[GKLEE]: keep using the current flow: 20
[GKLEE]: keep using the current flow: 20
[GKLEE]: keep using the current flow: 20
[GKLEE]: keep using the current flow: 20
[GKLEE]: keep using the current flow: 20
[GKLEE]: keep using the current flow: 20
[GKLEE]: keep using the current flow: 20
Thread 20 reaches a barrier: moving to the next thread.
[GKLEE]: create new parametric flow: 22
[GKLEE]: keep using the current flow: 21
[GKLEE]: keep using the current flow: 21
[GKLEE]: keep using the current flow: 21
[GKLEE]: keep using the current flow: 21
[GKLEE]: keep using the current flow: 21
[GKLEE]: keep using the current flow: 21
[GKLEE]: keep using the current flow: 21
[GKLEE]: keep using the current flow: 21
[GKLEE]: keep using the current flow: 21
[GKLEE]: keep using the current flow: 21
[GKLEE]: keep using the current flow: 21
[GKLEE]: keep using the current flow: 21
[GKLEE]: keep using the current flow: 21
[GKLEE]: keep using the current flow: 21
[GKLEE]: keep using the current flow: 21
[GKLEE]: keep using the current flow: 21
[GKLEE]: keep using the current flow: 21
[GKLEE]: keep using the current flow: 21
[GKLEE]: keep using the current flow: 21
[GKLEE]: keep using the current flow: 21
[GKLEE]: keep using the current flow: 21
[GKLEE]: keep using the current flow: 21
[GKLEE]: keep using the current flow: 21
Thread 21 reaches a barrier: moving to the next thread.
[GKLEE]: create new parametric flow: 23
[GKLEE]: keep using the current flow: 22
[GKLEE]: keep using the current flow: 22
[GKLEE]: keep using the current flow: 22
[GKLEE]: keep using the current flow: 22
[GKLEE]: keep using the current flow: 22
[GKLEE]: keep using the current flow: 22
[GKLEE]: keep using the current flow: 22
[GKLEE]: keep using the current flow: 22
[GKLEE]: keep using the current flow: 22
[GKLEE]: keep using the current flow: 22
[GKLEE]: keep using the current flow: 22
[GKLEE]: keep using the current flow: 22
[GKLEE]: keep using the current flow: 22
[GKLEE]: keep using the current flow: 22
[GKLEE]: keep using the current flow: 22
[GKLEE]: keep using the current flow: 22
[GKLEE]: keep using the current flow: 22
[GKLEE]: keep using the current flow: 22
[GKLEE]: keep using the current flow: 22
[GKLEE]: keep using the current flow: 22
[GKLEE]: keep using the current flow: 22
[GKLEE]: keep using the current flow: 22
Thread 22 reaches a barrier: moving to the next thread.
[GKLEE]: create new parametric flow: 24
[GKLEE]: keep using the current flow: 23
[GKLEE]: keep using the current flow: 23
[GKLEE]: keep using the current flow: 23
[GKLEE]: keep using the current flow: 23
[GKLEE]: keep using the current flow: 23
[GKLEE]: keep using the current flow: 23
[GKLEE]: keep using the current flow: 23
[GKLEE]: keep using the current flow: 23
[GKLEE]: keep using the current flow: 23
[GKLEE]: keep using the current flow: 23
[GKLEE]: keep using the current flow: 23
[GKLEE]: keep using the current flow: 23
[GKLEE]: keep using the current flow: 23
[GKLEE]: keep using the current flow: 23
[GKLEE]: keep using the current flow: 23
[GKLEE]: keep using the current flow: 23
[GKLEE]: keep using the current flow: 23
[GKLEE]: keep using the current flow: 23
[GKLEE]: keep using the current flow: 23
[GKLEE]: keep using the current flow: 23
[GKLEE]: keep using the current flow: 23
Thread 23 reaches a barrier: moving to the next thread.
[GKLEE]: create new parametric flow: 25
[GKLEE]: keep using the current flow: 24
[GKLEE]: keep using the current flow: 24
[GKLEE]: keep using the current flow: 24
[GKLEE]: keep using the current flow: 24
[GKLEE]: keep using the current flow: 24
[GKLEE]: keep using the current flow: 24
[GKLEE]: keep using the current flow: 24
[GKLEE]: keep using the current flow: 24
[GKLEE]: keep using the current flow: 24
[GKLEE]: keep using the current flow: 24
[GKLEE]: keep using the current flow: 24
[GKLEE]: keep using the current flow: 24
[GKLEE]: keep using the current flow: 24
[GKLEE]: keep using the current flow: 24
[GKLEE]: keep using the current flow: 24
[GKLEE]: keep using the current flow: 24
[GKLEE]: keep using the current flow: 24
[GKLEE]: keep using the current flow: 24
[GKLEE]: keep using the current flow: 24
[GKLEE]: keep using the current flow: 24
Thread 24 reaches a barrier: moving to the next thread.
[GKLEE]: create new parametric flow: 26
[GKLEE]: keep using the current flow: 25
[GKLEE]: keep using the current flow: 25
[GKLEE]: keep using the current flow: 25
[GKLEE]: keep using the current flow: 25
[GKLEE]: keep using the current flow: 25
[GKLEE]: keep using the current flow: 25
[GKLEE]: keep using the current flow: 25
[GKLEE]: keep using the current flow: 25
[GKLEE]: keep using the current flow: 25
[GKLEE]: keep using the current flow: 25
[GKLEE]: keep using the current flow: 25
[GKLEE]: keep using the current flow: 25
[GKLEE]: keep using the current flow: 25
[GKLEE]: keep using the current flow: 25
[GKLEE]: keep using the current flow: 25
[GKLEE]: keep using the current flow: 25
[GKLEE]: keep using the current flow: 25
[GKLEE]: keep using the current flow: 25
[GKLEE]: keep using the current flow: 25
Thread 25 reaches a barrier: moving to the next thread.
[GKLEE]: create new parametric flow: 27
[GKLEE]: keep using the current flow: 26
[GKLEE]: keep using the current flow: 26
[GKLEE]: keep using the current flow: 26
[GKLEE]: keep using the current flow: 26
[GKLEE]: keep using the current flow: 26
[GKLEE]: keep using the current flow: 26
[GKLEE]: keep using the current flow: 26
[GKLEE]: keep using the current flow: 26
[GKLEE]: keep using the current flow: 26
[GKLEE]: keep using the current flow: 26
[GKLEE]: keep using the current flow: 26
[GKLEE]: keep using the current flow: 26
[GKLEE]: keep using the current flow: 26
[GKLEE]: keep using the current flow: 26
[GKLEE]: keep using the current flow: 26
[GKLEE]: keep using the current flow: 26
[GKLEE]: keep using the current flow: 26
[GKLEE]: keep using the current flow: 26
Thread 26 reaches a barrier: moving to the next thread.
[GKLEE]: create new parametric flow: 28
[GKLEE]: keep using the current flow: 27
[GKLEE]: keep using the current flow: 27
[GKLEE]: keep using the current flow: 27
[GKLEE]: keep using the current flow: 27
[GKLEE]: keep using the current flow: 27
[GKLEE]: keep using the current flow: 27
[GKLEE]: keep using the current flow: 27
[GKLEE]: keep using the current flow: 27
[GKLEE]: keep using the current flow: 27
[GKLEE]: keep using the current flow: 27
[GKLEE]: keep using the current flow: 27
[GKLEE]: keep using the current flow: 27
[GKLEE]: keep using the current flow: 27
[GKLEE]: keep using the current flow: 27
[GKLEE]: keep using the current flow: 27
[GKLEE]: keep using the current flow: 27
[GKLEE]: keep using the current flow: 27
Thread 27 reaches a barrier: moving to the next thread.
[GKLEE]: create new parametric flow: 29
[GKLEE]: keep using the current flow: 28
[GKLEE]: keep using the current flow: 28
[GKLEE]: keep using the current flow: 28
[GKLEE]: keep using the current flow: 28
[GKLEE]: keep using the current flow: 28
[GKLEE]: keep using the current flow: 28
[GKLEE]: keep using the current flow: 28
[GKLEE]: keep using the current flow: 28
[GKLEE]: keep using the current flow: 28
[GKLEE]: keep using the current flow: 28
[GKLEE]: keep using the current flow: 28
[GKLEE]: keep using the current flow: 28
[GKLEE]: keep using the current flow: 28
[GKLEE]: keep using the current flow: 28
[GKLEE]: keep using the current flow: 28
[GKLEE]: keep using the current flow: 28
Thread 28 reaches a barrier: moving to the next thread.
[GKLEE]: create new parametric flow: 30
[GKLEE]: keep using the current flow: 29
[GKLEE]: keep using the current flow: 29
[GKLEE]: keep using the current flow: 29
[GKLEE]: keep using the current flow: 29
[GKLEE]: keep using the current flow: 29
[GKLEE]: keep using the current flow: 29
[GKLEE]: keep using the current flow: 29
[GKLEE]: keep using the current flow: 29
[GKLEE]: keep using the current flow: 29
[GKLEE]: keep using the current flow: 29
[GKLEE]: keep using the current flow: 29
[GKLEE]: keep using the current flow: 29
[GKLEE]: keep using the current flow: 29
[GKLEE]: keep using the current flow: 29
[GKLEE]: keep using the current flow: 29
Thread 29 reaches a barrier: moving to the next thread.
[GKLEE]: create new parametric flow: 31
[GKLEE]: keep using the current flow: 30
[GKLEE]: keep using the current flow: 30
[GKLEE]: keep using the current flow: 30
[GKLEE]: keep using the current flow: 30
[GKLEE]: keep using the current flow: 30
[GKLEE]: keep using the current flow: 30
[GKLEE]: keep using the current flow: 30
[GKLEE]: keep using the current flow: 30
[GKLEE]: keep using the current flow: 30
[GKLEE]: keep using the current flow: 30
[GKLEE]: keep using the current flow: 30
[GKLEE]: keep using the current flow: 30
[GKLEE]: keep using the current flow: 30
[GKLEE]: keep using the current flow: 30
Thread 30 reaches a barrier: moving to the next thread.
[GKLEE]: create new parametric flow: 32
[GKLEE]: keep using the current flow: 31
[GKLEE]: keep using the current flow: 31
[GKLEE]: keep using the current flow: 31
[GKLEE]: keep using the current flow: 31
[GKLEE]: keep using the current flow: 31
[GKLEE]: keep using the current flow: 31
[GKLEE]: keep using the current flow: 31
[GKLEE]: keep using the current flow: 31
[GKLEE]: keep using the current flow: 31
[GKLEE]: keep using the current flow: 31
[GKLEE]: keep using the current flow: 31
[GKLEE]: keep using the current flow: 31
[GKLEE]: keep using the current flow: 31
Thread 31 reaches a barrier: moving to the next thread.
[GKLEE]: create new parametric flow: 33
[GKLEE]: keep using the current flow: 32
[GKLEE]: keep using the current flow: 32
[GKLEE]: keep using the current flow: 32
[GKLEE]: keep using the current flow: 32
[GKLEE]: keep using the current flow: 32
[GKLEE]: keep using the current flow: 32
[GKLEE]: keep using the current flow: 32
[GKLEE]: keep using the current flow: 32
[GKLEE]: keep using the current flow: 32
[GKLEE]: keep using the current flow: 32
[GKLEE]: keep using the current flow: 32
[GKLEE]: keep using the current flow: 32
Thread 32 reaches a barrier: moving to the next thread.
[GKLEE]: create new parametric flow: 34
[GKLEE]: keep using the current flow: 33
[GKLEE]: keep using the current flow: 33
[GKLEE]: keep using the current flow: 33
[GKLEE]: keep using the current flow: 33
[GKLEE]: keep using the current flow: 33
[GKLEE]: keep using the current flow: 33
[GKLEE]: keep using the current flow: 33
[GKLEE]: keep using the current flow: 33
[GKLEE]: keep using the current flow: 33
[GKLEE]: keep using the current flow: 33
[GKLEE]: keep using the current flow: 33
Thread 33 reaches a barrier: moving to the next thread.
[GKLEE]: create new parametric flow: 35
[GKLEE]: keep using the current flow: 34
[GKLEE]: keep using the current flow: 34
[GKLEE]: keep using the current flow: 34
[GKLEE]: keep using the current flow: 34
[GKLEE]: keep using the current flow: 34
[GKLEE]: keep using the current flow: 34
[GKLEE]: keep using the current flow: 34
[GKLEE]: keep using the current flow: 34
[GKLEE]: keep using the current flow: 34
[GKLEE]: keep using the current flow: 34
Thread 34 reaches a barrier: moving to the next thread.
[GKLEE]: create new parametric flow: 36
[GKLEE]: keep using the current flow: 35
[GKLEE]: keep using the current flow: 35
[GKLEE]: keep using the current flow: 35
[GKLEE]: keep using the current flow: 35
[GKLEE]: keep using the current flow: 35
[GKLEE]: keep using the current flow: 35
[GKLEE]: keep using the current flow: 35
[GKLEE]: keep using the current flow: 35
[GKLEE]: keep using the current flow: 35
Thread 35 reaches a barrier: moving to the next thread.
[GKLEE]: create new parametric flow: 37
[GKLEE]: keep using the current flow: 36
[GKLEE]: keep using the current flow: 36
[GKLEE]: keep using the current flow: 36
[GKLEE]: keep using the current flow: 36
[GKLEE]: keep using the current flow: 36
[GKLEE]: keep using the current flow: 36
[GKLEE]: keep using the current flow: 36
[GKLEE]: keep using the current flow: 36
Thread 36 reaches a barrier: moving to the next thread.
[GKLEE]: create new parametric flow: 38
[GKLEE]: keep using the current flow: 37
[GKLEE]: keep using the current flow: 37
[GKLEE]: keep using the current flow: 37
[GKLEE]: keep using the current flow: 37
[GKLEE]: keep using the current flow: 37
[GKLEE]: keep using the current flow: 37
[GKLEE]: keep using the current flow: 37
Thread 37 reaches a barrier: moving to the next thread.
[GKLEE]: create new parametric flow: 39
[GKLEE]: keep using the current flow: 38
[GKLEE]: keep using the current flow: 38
[GKLEE]: keep using the current flow: 38
[GKLEE]: keep using the current flow: 38
[GKLEE]: keep using the current flow: 38
[GKLEE]: keep using the current flow: 38
Thread 38 reaches a barrier: moving to the next thread.
[GKLEE]: create new parametric flow: 40
[GKLEE]: keep using the current flow: 39
[GKLEE]: keep using the current flow: 39
[GKLEE]: keep using the current flow: 39
[GKLEE]: keep using the current flow: 39
[GKLEE]: keep using the current flow: 39
Thread 39 reaches a barrier: moving to the next thread.
[GKLEE]: create new parametric flow: 41
[GKLEE]: keep using the current flow: 40
[GKLEE]: keep using the current flow: 40
[GKLEE]: keep using the current flow: 40
[GKLEE]: keep using the current flow: 40
Thread 40 reaches a barrier: moving to the next thread.
[GKLEE]: create new parametric flow: 42
[GKLEE]: keep using the current flow: 41
[GKLEE]: keep using the current flow: 41
[GKLEE]: keep using the current flow: 41
Thread 41 reaches a barrier: moving to the next thread.
[GKLEE]: create new parametric flow: 43
[GKLEE]: keep using the current flow: 42
[GKLEE]: keep using the current flow: 42
Thread 42 reaches a barrier: moving to the next thread.
[GKLEE]: create new parametric flow: 44
[GKLEE]: keep using the current flow: 43
Thread 43 reaches a barrier: moving to the next thread.
[GKLEE]: create new parametric flow: 45
Thread 44 reaches a barrier: moving to the next thread.
Thread 45 reaches a barrier: moving to the next thread.

[GKLEE]: ********** (Symbolic Configuration) Start checking bank conflicts at SharedMemory  **********
[GKLEE]: The read set is empty in bank conflict checking for capability 2.x
[GKLEE]: The write set is empty in bank conflict checking for capability 2.x
[GKLEE]: ********** No Bank Conflict found at this SharedMemory **********

[GKLEE]: ********** (Symbolic Configuration) Start checking coalesced device memory access at capability: 2.x **********
[GKLEE]: ********** All memory accesses are coalesced at capability: 2.x **********

[GKLEE]: ********** (Symbolic Configuration) Start checking warp divergence  **********
[GKLEE]: ********** Warp Divergence found for this kernel **********

[GKLEE]: ********** (Symbolic Config) Start checking missed volatile at SharedMemory  ********** 
[GKLEE]: ********** No 'Volatile' Qualifier Missed at this SharedMemory **********

[GKLEE]: ********** (Symbolic Config) Start checking races at SharedMemory  **********
[GKLEE]: ++++++++++ Read-Write race checking (Pure Canonical Schedule) ++++++++++
[GKLEE]: ++++++++++ Write-Write race checking (Pure Canonical Schedule) ++++++++++
[GKLEE]: ********** no races found at SharedMemory ***********

[GKLEE]: ********** (Symbolic Config) Start checking races at DeviceMemory (Within Same Block)  **********
[GKLEE]: ++++++++++ Read-Write race checking (Pure Canonical Schedule) ++++++++++
[GKLEE]: ++++++++++ Write-Write race checking (Pure Canonical Schedule) ++++++++++

[GKLEE]: ********** (Symbolic Config) Checking races at DeviceMemory (Across Blocks) not allowed (number of block > 1)  **********
[GKLEE]: ********* no races found at DeviceMemory **********
[GKLEE]: Within the current Barrier Interval, 45 flows are used to represent all threads !

[GKLEE]: Finish executing a GPU kernel 

[GKLEE]: GPU Execution time: 15.7884s
[GKLEE]: In Barrier Interval 1, Elapsed time for symbolic configuration (Parametric Flow): 15.7732

[GKLEE]: Finishing the program!
 path num explored here (symbolic config): 1
<BI: 1, Time: 15.7732>
Under symbolic configuration, Across 1 BIs, Total Time: 15.7732
After exploring 1 paths, the average exploration time (symbolic) is 15.7732s, the total execution time: 15.7732s
********** No Bank Conflict found **********
********** Memory Coalescing found **********
********** Warp Divergence found **********
********** No Volatile Missed found *********
********** No Race found **********

KLEE: done: total instructions = 4279
KLEE: done: completed paths = 1
KLEE: done: generated tests = 1
RUN /opt/gklee/gklee-nvcc gklee/ifs-44.cu -o gklee/ifs-44.bc
RUN /opt/gklee/sesa gklee/ifs-44.bc -o gklee/ifs-44.sesa
RUN /opt/gklee/gklee --symbolic-config --race-prune gklee/ifs-44.sesa
DEL gklee/ifs-44.bc
DEL gklee/ifs-44.sesa
DEL /home/verify/datasets/micro-benchmarks/ifs-44.cpp
DEL /home/verify/datasets/micro-benchmarks/ifs-44.kernelSet.txt
DEL /home/verify/datasets/micro-benchmarks/flowsGraph.dot
DEL gklee/klee-last
DEL /home/verify/datasets/micro-benchmarks/summary.txt
DEL gklee/klee-out-0
