"/artifact/datasets/gpuverify-cav14/pug/C++AMP/NBody_Simulation/simple_implementation/kernel.c", line 87: warning: 
          attribute "always_inline" ignored
  static __attribute__((always_inline))
                        ^

"/artifact/datasets/gpuverify-cav14/pug/C++AMP/NBody_Simulation/simple_implementation/kernel.c", line 90: error: 
          expression must have arithmetic or pointer type
      float4 r = other_element_old_pos - my_curr_pos;
                 ^

"/artifact/datasets/gpuverify-cav14/pug/C++AMP/NBody_Simulation/simple_implementation/kernel.c", line 96: error: 
          expression must have arithmetic type
      (*acc) += r*s;
                ^

"/artifact/datasets/gpuverify-cav14/pug/C++AMP/NBody_Simulation/simple_implementation/kernel.c", line 96: error: 
          expression must have arithmetic or pointer type
      (*acc) += r*s;
      ^

"/artifact/datasets/gpuverify-cav14/pug/C++AMP/NBody_Simulation/simple_implementation/kernel.c", line 137: error: 
          expression must have arithmetic type
          p_vel += acc*DELTA_TIME;
                   ^

"/artifact/datasets/gpuverify-cav14/pug/C++AMP/NBody_Simulation/simple_implementation/kernel.c", line 137: error: 
          expression must have arithmetic or pointer type
          p_vel += acc*DELTA_TIME;
          ^

"/artifact/datasets/gpuverify-cav14/pug/C++AMP/NBody_Simulation/simple_implementation/kernel.c", line 138: error: 
          expression must have arithmetic type
          p_vel *= DAMPENING;
          ^

"/artifact/datasets/gpuverify-cav14/pug/C++AMP/NBody_Simulation/simple_implementation/kernel.c", line 140: error: 
          expression must have arithmetic type
          p_pos += p_vel*DELTA_TIME;
                   ^

"/artifact/datasets/gpuverify-cav14/pug/C++AMP/NBody_Simulation/simple_implementation/kernel.c", line 140: error: 
          expression must have arithmetic or pointer type
          p_pos += p_vel*DELTA_TIME;
          ^

"/artifact/datasets/gpuverify-cav14/pug/C++AMP/NBody_Simulation/simple_implementation/kernel.c", line 103: warning: 
          function "kernel" was declared but never referenced
  __global__ void kernel (float4* data_in_pos, float4* data_in_vel, float4* data_out_pos, float4* data_out_vel, unsigned int num_bodies) {
                  ^

terminate called after throwing an instance of 'rose_exception'
  what():  Errors in Processing: (frontend_failed)
/artifact/tools/pug-v0.2_x64/pug: line 3:  2692 Aborted                 (core dumped) LD_LIBRARY_PATH="$PREFIX/lib" "$PREFIX/bin/pug" "$@"
