derivativesKernel.opt.bc: warning: Assuming the arguments 'Ix', 'Iy', 'Iz' of 'kernel' on line 13 of derivativesKernel.cu to be non-aliased; please consider adding a restrict qualifier to these arguments
GPUVerify kernel analyser finished with 1 verified, 0 errors
Verified: derivativesKernel.cu
- no data races within thread blocks
- no barrier divergence
- no assertion failures
(but absolutely no warranty provided)
