"/artifact/datasets/gpuverify-cav14/pug/CUDA50/5_Simulations/oceanFFT/calculateSlopeKernel.c", line 115: error: 
          a value of type "int" cannot be used to initialize an entity of type
          "float2"
  float2 slope = make_float2(0.0f, 0.0f);
                 ^

"/artifact/datasets/gpuverify-cav14/pug/CUDA50/5_Simulations/oceanFFT/calculateSlopeKernel.c", line 86: warning: 
          function "kernel" was declared but never referenced
  __global__ void kernel (float* h, float2* slopeOut) {
                  ^

terminate called after throwing an instance of 'rose_exception'
  what():  Errors in Processing: (frontend_failed)
/artifact/tools/pug-v0.2_x64/pug: line 3: 12596 Aborted                 (core dumped) LD_LIBRARY_PATH="$PREFIX/lib" "$PREFIX/bin/pug" "$@"
