"/artifact/datasets/gpuverify-cav14/pug/gpgpu-sim_ispass2009/LIB/Pathcalc_Portfolio_KernelGPU/../common.h", line 23: warning: 
          attribute "always_inline" ignored
  static __attribute__((always_inline)) __device__ void path_calc(float *L, float *z)
                        ^

"/artifact/datasets/gpuverify-cav14/pug/gpgpu-sim_ispass2009/LIB/Pathcalc_Portfolio_KernelGPU/../common.h", line 46: warning: 
          attribute "always_inline" ignored
  static __attribute__((always_inline)) __device__ void path_calc_b1(float *L, float *z, float *L2)
                        ^

"/artifact/datasets/gpuverify-cav14/pug/gpgpu-sim_ispass2009/LIB/Pathcalc_Portfolio_KernelGPU/../common.h", line 73: warning: 
          attribute "always_inline" ignored
  static __attribute__((always_inline)) __device__ void path_calc_b2(float *L_b, float *z, float *L2)
                        ^

"/artifact/datasets/gpuverify-cav14/pug/gpgpu-sim_ispass2009/LIB/Pathcalc_Portfolio_KernelGPU/../common.h", line 93: warning: 
          attribute "always_inline" ignored
  static __attribute__((always_inline)) __device__ float portfolio_b(float *L, float *L_b) 
                        ^

"/artifact/datasets/gpuverify-cav14/pug/gpgpu-sim_ispass2009/LIB/Pathcalc_Portfolio_KernelGPU/../common.h", line 93: warning: 
          type qualifier on return type is meaningless
  static __attribute__((always_inline)) __device__ float portfolio_b(float *L, float *L_b) 
                                                         ^

"/artifact/datasets/gpuverify-cav14/pug/gpgpu-sim_ispass2009/LIB/Pathcalc_Portfolio_KernelGPU/../common.h", line 157: warning: 
          attribute "always_inline" ignored
  static __attribute__((always_inline)) __device__ float portfolio(float *L)
                        ^

"/artifact/datasets/gpuverify-cav14/pug/gpgpu-sim_ispass2009/LIB/Pathcalc_Portfolio_KernelGPU/../common.h", line 157: warning: 
          type qualifier on return type is meaningless
  static __attribute__((always_inline)) __device__ float portfolio(float *L)
                                                         ^

"/artifact/datasets/gpuverify-cav14/pug/gpgpu-sim_ispass2009/LIB/Pathcalc_Portfolio_KernelGPU/kernel.c", line 85: warning: 
          function "kernel" was declared but never referenced
  __global__ void kernel (float* d_v, float* d_Lb) {
                  ^

>>>> start analysis ... 


-------------------------------------------------------
Invalid OVERFLOW_PROTECTION flag in config.txt!
Setting OVERFLOW_PROTECTION flag to on
-------------------------------------------------------

-------------------------------------------------------
Invalid NBITS value in config.txt!
Setting NBITS value to 10
-------------------------------------------------------

-------------------------------------------------------
Invalid USE_INCRSMT flag in config.txt!
Setting USE_INCRSMT flag to false
-------------------------------------------------------


-------------------------------------------------------
Invalid USE_LOOP_REFINEMENT flag in config.txt!
Setting USE_LOOP_REFINEMENT flag to true
-------------------------------------------------------


-------------------------------------------------------
Invalid SLICE_ARRAYS flag in config.txt!
Setting SLICE_ARRAYS flag to true
-------------------------------------------------------


-------------------------------------------------------
Invalid USE_ASSUMES flag in config.txt!
Setting USE_ASSUMES flag to true
-------------------------------------------------------


-------------------------------------------------------
Invalid CHK_BANK_CONFLICTS option in config.txt!
Setting CHK_BANK_CONFLICTS option to false
-------------------------------------------------------

Debug level (verbosity) set to 0


Processing function: kernel

FunctionCall: assume(((blockDim.x) ==(32)))
Assuming bdim.x == 32

FunctionCall: assume(((gridDim.x) ==(2)))
Assuming gdim.x == 2
containBarrierFlag = 1
containBarrierFlag = 0

Binary OP: z[i] =(0.3)

Binary OP: L[i] =(0.05)

FunctionCall: path_calc_b1(L,z,L2)
aliasing argument: L <- L
aliasing argument: z <- z
aliasing argument: L2 <- L2
containBarrierFlag = 0

Binary OP: L2[i] =(L[i])
containBarrierFlag = 1

Binary OP: sqez =(((sqrt((delta)))) *(z[n]))

Binary OP: v =(0.0)
containBarrierFlag = 1

Binary OP: lam =(lambda[(i - n) - 1])

Binary OP: con1 =(delta * lam)

Binary OP: v +=((__fdividef(((con1 *(L[i]))),(1.0 +((delta *(L[i])))))))
Found loop carrying expression, try refinement!

Binary OP: vrat =((__expf((((con1 * v)) +((lam) *((sqez) -(0.5 *(con1))))))))

Binary OP: L[i] =((L[i]) * vrat)

Binary OP: L2[i +((n + 1) * N)] =(L[i])

Binary OP: d_v[path] = portfolio_b(L,L_b)
aliasing argument: L <- L
aliasing argument: L_b <- L_b

Binary OP: b =(1.0)

Binary OP: s =(0.0)
containBarrierFlag = 1

Binary OP: n =(m + Nmat)

Binary OP: b =((__fdividef((b),(1.0 +((delta *(L[n])))))))

Binary OP: s =(s +(delta * b))

Binary OP: B[m] = b

Binary OP: S[m] = s

Binary OP: v =(0.0)
containBarrierFlag = 0

Binary OP: B_b[m] =(0)

Binary OP: S_b[m] =(0)
containBarrierFlag = 0

Binary OP: m =((maturities[n]) - 1)

Binary OP: swapval =(((((B[m]) +((swaprates[n]) *(S[m])))) - 1.0))

Binary OP: v +=(((-100)) * swapval)
Found loop carrying expression, try refinement!

Binary OP: S_b[m] +=(((-100)) *(swaprates[n]))
Found loop carrying expression, try refinement!

Binary OP: B_b[m] +=((-100))
Found loop carrying expression, try refinement!
containBarrierFlag = 1

Binary OP: n =(m + Nmat)

Binary OP: B_b[m] +=(delta *(S_b[m]))
Found loop carrying expression, try refinement!

Binary OP: L_b[n] =((-(B_b[m]) *(B[m])) *((__fdividef((delta),(1.0 +((delta *(L[n]))))))))
unsatisfiable
!!! the same decision: (!7^m1 > 0)

Binary OP: S_b[m - 1] +=(S_b[m])
Found loop carrying expression, try refinement!

Binary OP: B_b[m - 1] +=((__fdividef(((B_b[m])),(1.0 +((delta *(L[n])))))))
Found loop carrying expression, try refinement!

Binary OP: b =(1.0)
containBarrierFlag = 0

Binary OP: b =(((b) /(1.0 +((delta *(L[n]))))))

Binary OP: v =(b * v)
containBarrierFlag = 0

Binary OP: L_b[n] =((((-v * delta)) /(1.0 +((delta *(L[n]))))))
containBarrierFlag = 0

Binary OP: L_b[n] =(b *(L_b[n]))
returning: !7^v3

FunctionCall: path_calc_b2(L_b,z,L2)
aliasing argument: L_b <- L_b
aliasing argument: z <- z
aliasing argument: L2 <- L2
containBarrierFlag = 1

Binary OP: v1 =(0.0)
containBarrierFlag = 1

Binary OP: v1 +=(((lambda[(i - n) - 1]) *(L2[i +((n + 1) * N)])) *(L_b[i]))
Found loop carrying expression, try refinement!

Binary OP: faci =((__fdividef((delta),(1.0 +((delta *(L2[i +(n * N)])))))))

Binary OP: L_b[i] =(((L_b[i]) *((__fdividef(((L2[i +((n + 1) * N)])),((L2[i +(n * N)])))))) +(((v1 *(lambda[(i - n) - 1])) * faci) * faci))

Binary OP: d_Lb[path] =(L_b[(80 - 1)])

Reaching the end of the kernel
Equation: (= !7^b2@t1
   (bv-add (bv-mul (bv-add 0b0000000000
                           (bv-mul !12^delta0@t1 (L2@t1 !7^n2@t1)))
                   v#1)
           v#0))
Equation: (= !7^b2@t2
   (bv-add (bv-mul (bv-add 0b0000000000
                           (bv-mul !12^delta0@t2 (L2@t2 !7^n2@t2)))
                   v#3)
           v#2))
unsatisfiable


#####################################################################

No races or synchronization errors were found.

Max instance solving time = 0.001922s
Total solving time = 0.003487s

#####################################################################

