"/artifact/datasets/gpuverify-cav14/pug/CUDA50/3_Imaging/boxFilter/d_boxfilter_x_global.c", line 84: warning: 
          function "kernel" was declared but never referenced
  __global__ void kernel (float* id, float* od, int w,int h,int r) {
                  ^

>>>> start analysis ... 


-------------------------------------------------------
Invalid OVERFLOW_PROTECTION flag in config.txt!
Setting OVERFLOW_PROTECTION flag to on
-------------------------------------------------------

-------------------------------------------------------
Invalid NBITS value in config.txt!
Setting NBITS value to 10
-------------------------------------------------------

-------------------------------------------------------
Invalid USE_INCRSMT flag in config.txt!
Setting USE_INCRSMT flag to false
-------------------------------------------------------


-------------------------------------------------------
Invalid USE_LOOP_REFINEMENT flag in config.txt!
Setting USE_LOOP_REFINEMENT flag to true
-------------------------------------------------------


-------------------------------------------------------
Invalid SLICE_ARRAYS flag in config.txt!
Setting SLICE_ARRAYS flag to true
-------------------------------------------------------


-------------------------------------------------------
Invalid USE_ASSUMES flag in config.txt!
Setting USE_ASSUMES flag to true
-------------------------------------------------------


-------------------------------------------------------
Invalid CHK_BANK_CONFLICTS option in config.txt!
Setting CHK_BANK_CONFLICTS option to false
-------------------------------------------------------

Debug level (verbosity) set to 0


Processing function: kernel

FunctionCall: assume((w == 1024))
Assuming w0 == 1024

FunctionCall: assume((h == 1024))
Assuming h0 == 1024

FunctionCall: assume((r == 14))
Assuming r0 == 14

FunctionCall: assume(((blockDim.x) ==(64)))
Assuming bdim.x == 64

FunctionCall: assume(((gridDim.x) ==(16)))
Assuming gdim.x == 16

Binary OP: t =((id[y *(w)]) *(r))
containBarrierFlag = 0
incrExpr = x++
------------- Already normalized 
rangeExpr = ((!1^x0 >= 0) && (!1^x0 <= ((r0 + 1) - 1))); substExpr = 

Binary OP: t +=(id[(y *(w)) +(x)])
Found loop carrying expression, try refinement!
refined exp: t2 == (t1 + ((!1^x0 - 0) * id0[((y1 * w0) + !1^x0)]))

Binary OP: od[y *(w)] =(t * scale)
containBarrierFlag = 0
incrExpr = x++
------------- Already normalized 
rangeExpr = ((!2^x0 >= 1) && (!2^x0 <= ((r0 + 1) - 1))); substExpr = 

Binary OP: t +=(id[((y *(w)) +(x)) +(r)])
Found loop carrying expression, try refinement!
refined exp: t3 == (t2 + ((!2^x0 - 1) * id0[(((y1 * w0) + !2^x0) + r0)]))

Binary OP: t -=(id[y *(w)])
Found loop carrying expression, try refinement!

Binary OP: od[(y *(w)) +(x)] =(t * scale)
containBarrierFlag = 0
incrExpr = x++
------------- Already normalized 
rangeExpr = ((!3^x0 >= (r0 + 1)) && (!3^x0 <= ((w0 - r0) - 1))); substExpr = 

Binary OP: t +=(id[((y *(w)) +(x)) +(r)])
Found loop carrying expression, try refinement!
refined exp: t5 == (t4 + ((!3^x0 - (r0 + 1)) * id0[(((y1 * w0) + !3^x0) + r0)]))

Binary OP: t -=(id[(((y *(w)) +(x)) -(r)) -(1)])
Found loop carrying expression, try refinement!

Binary OP: od[(y *(w)) +(x)] =(t * scale)
containBarrierFlag = 0
incrExpr = x++
------------- Already normalized 
rangeExpr = ((!4^x0 >= (w0 - r0)) && (!4^x0 <= (w0 - 1))); substExpr = 

Binary OP: t +=(id[((y *(w)) +(w)) -(1)])
Found loop carrying expression, try refinement!
refined exp: t7 == (t6 + ((!4^x0 - (w0 - r0)) * id0[(((y1 * w0) + w0) - 1)]))

Binary OP: t -=(id[(((y *(w)) +(x)) -(r)) -(1)])
Found loop carrying expression, try refinement!

Binary OP: od[(y *(w)) +(x)] =(t * scale)

Reaching the end of the kernel
Equation: (= 0b0000000000
   (bv-add (bv-mul (bv-add (bv-shift-left0 r0 1) 0b0000000001)
                   v#1)
           v#0))
Equation: (= 0b0000000000
   (bv-add (bv-mul (bv-add (bv-shift-left0 r0 1) 0b0000000001)
                   v#3)
           v#2))
unsatisfiable


#####################################################################

No races or synchronization errors were found.

Max instance solving time = 0.003763s
Total solving time = 0.003763s

#####################################################################

