"/artifact/datasets/gpuverify-cav14/pug/CUDA50/6_Advanced/scalarProd/scalarProd.c", line 90: warning: 
          function "kernel" was declared but never referenced
  __global__ void kernel (float* d_C, float* d_A, float* d_B, int vectorN,int elementN) {
                  ^

>>>> start analysis ... 


-------------------------------------------------------
Invalid OVERFLOW_PROTECTION flag in config.txt!
Setting OVERFLOW_PROTECTION flag to on
-------------------------------------------------------

-------------------------------------------------------
Invalid NBITS value in config.txt!
Setting NBITS value to 10
-------------------------------------------------------

-------------------------------------------------------
Invalid USE_INCRSMT flag in config.txt!
Setting USE_INCRSMT flag to false
-------------------------------------------------------


-------------------------------------------------------
Invalid USE_LOOP_REFINEMENT flag in config.txt!
Setting USE_LOOP_REFINEMENT flag to true
-------------------------------------------------------


-------------------------------------------------------
Invalid SLICE_ARRAYS flag in config.txt!
Setting SLICE_ARRAYS flag to true
-------------------------------------------------------


-------------------------------------------------------
Invalid USE_ASSUMES flag in config.txt!
Setting USE_ASSUMES flag to true
-------------------------------------------------------


-------------------------------------------------------
Invalid CHK_BANK_CONFLICTS option in config.txt!
Setting CHK_BANK_CONFLICTS option to false
-------------------------------------------------------

Debug level (verbosity) set to 0


Processing function: kernel

FunctionCall: assume((vectorN ==(1 << 16)))
Assuming vectorN0 == 65536

FunctionCall: assume((elementN ==(1 << 16)))
Assuming elementN0 == 65536

FunctionCall: assume(((blockDim.x) ==(256)))
Assuming bdim.x == 256

FunctionCall: assume(((gridDim.x) ==(128)))
Assuming gdim.x == 128
containBarrierFlag = 1
incrExpr = vec +=(gridDim.x)
rhs = (gridDim.x)SgDotExp
------------- Linear incrExpr
var = !1^vec0; lb = bid.x; ub = (vectorN0 - 1); stride = gdim.x
rangeExpr = ((bid.x <= (vectorN0 - 1)) && ((!1^vec0 >= 0) && (!1^vec0 <= (((vectorN0 - 1) - bid.x) / gdim.x)))); substExpr = !1^vec1 == ((!1^vec0 * gdim.x) + bid.x)
containBarrierFlag = 0
incrExpr = iAccum +=(blockDim.x)
rhs = (blockDim.x)SgDotExp
------------- Linear incrExpr
var = !2^iAccum0; lb = tid.x; ub = (1024 - 1); stride = bdim.x
rangeExpr = ((tid.x <= (1024 - 1)) && ((!2^iAccum0 >= 0) && (!2^iAccum0 <= (((1024 - 1) - tid.x) / bdim.x)))); substExpr = !2^iAccum1 == ((!2^iAccum0 * bdim.x) + tid.x)
containBarrierFlag = 0
incrExpr = pos += 1024
rhs = 1024SgIntVal
------------- Linear incrExpr
var = !3^pos0; lb = (!1^vectorBase0 + !2^iAccum1); ub = (!1^vectorEnd1 - 1); stride = 1024
rangeExpr = (((!1^vectorBase0 + !2^iAccum1) <= (!1^vectorEnd1 - 1)) && ((!3^pos0 >= 0) && (!3^pos0 <= (((!1^vectorEnd1 - 1) - (!1^vectorBase0 + !2^iAccum1)) >> 10)))); substExpr = !3^pos1 == ((!3^pos0 << 10) + (!1^vectorBase0 + !2^iAccum1))

Binary OP: sum +=((d_A[pos]) *(d_B[pos]))
Found loop carrying expression, try refinement!

Binary OP: accumResult[iAccum] = sum
containBarrierFlag = 1
incrExpr = stride >>= 1
------------- NON Linear incrExpr
rangeExpr = ((!4^stride0 >= (0 + 1)) && (!4^stride0 <= 512)); substExpr = 

FunctionCall: __syncthreads()
Equation: (= (bv-sub (bv-sub vectorN0 0b0000000001) bid.x)
   (bv-add (bv-mul gdim.x v#1) v#0))
Equation: (= (bv-sub (bv-sub 0b0000000000 0b0000000001) t1.x)
   (bv-add (bv-mul bdim.x v#3) v#2))terminate called after throwing an instance of 'yices::type_checker_exception'
  what():  invalid shift operation.
/artifact/tools/pug-v0.2_x64/pug: line 3: 34092 Aborted                 (core dumped) LD_LIBRARY_PATH="$PREFIX/lib" "$PREFIX/bin/pug" "$@"
