nested-loops-sync-7.cpp:51:31: error: indirection requires pointer operand ('unsigned long' invalid)
    cudaMalloc((void**)&out,  * sizeof(float));
                              ^ ~~~~~~~~~~~~~
nested-loops-sync-7.cpp:55:29: error: indirection requires pointer operand ('unsigned long' invalid)
    cudaMalloc((void**)&a,  * sizeof(float));
                            ^ ~~~~~~~~~~~~~
nested-loops-sync-7.cpp:59:29: error: indirection requires pointer operand ('unsigned long' invalid)
    cudaMalloc((void**)&b,  * sizeof(float));
                            ^ ~~~~~~~~~~~~~
3 errors generated.
Configuration: concurrency bug checking level is: 2
KLEE: ERROR: error loading program 'gklee/nested-loops-sync-7.bc': No such file or directory
RUN /opt/gklee/gklee-nvcc gklee/nested-loops-sync-7.cu -o gklee/nested-loops-sync-7.bc
RUN /opt/gklee/gklee --symbolic-config gklee/nested-loops-sync-7.bc
DEL /home/verify/datasets/micro-benchmarks/nested-loops-sync-7.cpp
DEL /home/verify/datasets/micro-benchmarks/nested-loops-sync-7.kernelSet.txt
DEL flowsGraph.dot
