serial-loops-3.opt.bc: warning: Assuming the arguments 'out', 'a', 'b' of 'kernel' on line 8 of gpuverify/serial-loops-3.cu to be non-aliased; please consider adding a restrict qualifier to these arguments
GPUVerify kernel analyser finished with 1 verified, 0 errors
Verified: gpuverify/serial-loops-3.cu
- no data races within thread blocks
- no data races between thread blocks
- no barrier divergence
- no assertion failures
(but absolutely no warranty provided)
