shfl_scan_test.opt.bc: warning: Assuming the arguments 'data', 'partial_sums' of 'kernel' on line 14 of shfl_scan_test.cu to be non-aliased; please consider adding a restrict qualifier to these arguments
GPUVerify kernel analyser finished with 1 verified, 0 errors
Verified: shfl_scan_test.cu
- no data races within thread blocks
- no barrier divergence
- no assertion failures
(but absolutely no warranty provided)
