fwtBatch1Kernel.opt.bc: warning: Assuming the arguments 'd_Output', 'd_Input' of 'kernel' on line 11 of fwtBatch1Kernel.cu to be non-aliased; please consider adding a restrict qualifier to these arguments

fwtBatch1Kernel.cu: error: possible write-write race on d_Output[4]:

Write by thread 4 in thread block 0 (global id 4), fwtBatch1Kernel.cu:85:20:
  d_Dst[pos] = s_data[pos];

Write by thread 0 in thread block 0 (global id 0), fwtBatch1Kernel.cu:85:20:
  d_Dst[pos] = s_data[pos];

Bitwise values of parameters of 'kernel':
 log2N = 11


fwtBatch1Kernel.cu: error: possible write-read race on s_data[1568]:

Read by thread 784 in thread block 3944 (global id 8078096), fwtBatch1Kernel.cu:73:24:
  float D0 = s_data[i0];

Write by thread 272 in thread block 3944 (global id 8077584), possible sources are:
fwtBatch1Kernel.cu:75:24:
  s_data[i0] = D0 + D1;

fwtBatch1Kernel.cu:76:24:
  s_data[i1] = D0 - D1;


Bitwise values of parameters of 'kernel':
 log2N = 11


fwtBatch1Kernel.cu: error: possible write-read race on s_data[3]:

Read by thread 1 in thread block 0 (global id 1), fwtBatch1Kernel.cu:74:24:
  float D1 = s_data[i1];

Write by thread 129 in thread block 0 (global id 129), possible sources are:
fwtBatch1Kernel.cu:75:24:
  s_data[i0] = D0 + D1;

fwtBatch1Kernel.cu:76:24:
  s_data[i1] = D0 - D1;


Bitwise values of parameters of 'kernel':
 log2N = 11


fwtBatch1Kernel.cu: error: possible read-write race on s_data[128]:

Write by thread 64 in thread block 2722 (global id 5574720), fwtBatch1Kernel.cu:75:24:
  s_data[i0] = D0 + D1;

Read by thread 1088 in thread block 2722 (global id 5575744), possible sources are:
fwtBatch1Kernel.cu:73:24:
  float D0 = s_data[i0];

fwtBatch1Kernel.cu:74:24:
  float D1 = s_data[i1];


Bitwise values of parameters of 'kernel':
 log2N = 11


fwtBatch1Kernel.cu: error: possible read-write race on s_data[3]:

Write by thread 1 in thread block 0 (global id 1), fwtBatch1Kernel.cu:76:24:
  s_data[i1] = D0 - D1;

Read by thread 129 in thread block 0 (global id 129), possible sources are:
fwtBatch1Kernel.cu:73:24:
  float D0 = s_data[i0];

fwtBatch1Kernel.cu:74:24:
  float D1 = s_data[i1];


Bitwise values of parameters of 'kernel':
 log2N = 11

GPUVerify kernel analyser finished with 0 verified, 5 errors
