"/artifact/datasets/gpuverify-cav14/pug/CUDA50/3_Imaging/dct8x8/common1.h", line 7: error: 
          this declaration has no storage class or type specifier
  texture<float, 2, cudaReadModeElementType> TexSrc;
  ^

"/artifact/datasets/gpuverify-cav14/pug/CUDA50/3_Imaging/dct8x8/common1.h", line 7: error: 
          expected a ";"
  texture<float, 2, cudaReadModeElementType> TexSrc;
         ^

"/artifact/datasets/gpuverify-cav14/pug/CUDA50/3_Imaging/dct8x8/CUDAkernel1DCT.c", line 128: error: 
          identifier "TexSrc" is undefined
      CurBlockLocal1[(ty << BLOCK_SIZE_LOG2) + tx ] = tex2D(TexSrc, tex_x, tex_y);
                                                            ^

"/artifact/datasets/gpuverify-cav14/pug/CUDA50/3_Imaging/dct8x8/CUDAkernel1DCT.c", line 85: warning: 
          function "kernel" was declared but never referenced
  __global__ void kernel (float* Dst, int ImgWidth,int OffsetXBlocks,int OffsetYBlocks) {
                  ^

terminate called after throwing an instance of 'rose_exception'
  what():  Errors in Processing: (frontend_failed)
/artifact/tools/pug-v0.2_x64/pug: line 3: 51512 Aborted                 (core dumped) LD_LIBRARY_PATH="$PREFIX/lib" "$PREFIX/bin/pug" "$@"
