WARNING: operator '&' unsupported; converting to '+'. Use bit-vector integers instead
WARNING: operator '&' unsupported; converting to '+'. Use bit-vector integers instead
WARNING: operator '&' unsupported; converting to '+'. Use bit-vector integers instead
WARNING: operator '&' unsupported; converting to '+'. Use bit-vector integers instead
WARNING: operator '&' unsupported; converting to '+'. Use bit-vector integers instead
WARNING: operator '&' unsupported; converting to '+'. Use bit-vector integers instead
WARNING: operator '&' unsupported; converting to '+'. Use bit-vector integers instead
WARNING: operator '&' unsupported; converting to '+'. Use bit-vector integers instead
WARNING: operator '&' unsupported; converting to '+'. Use bit-vector integers instead
WARNING: operator '&' unsupported; converting to '+'. Use bit-vector integers instead
WARNING: operator '&' unsupported; converting to '+'. Use bit-vector integers instead
WARNING: operator '&' unsupported; converting to '+'. Use bit-vector integers instead
WARNING: operator '&' unsupported; converting to '+'. Use bit-vector integers instead
WARNING: operator '&' unsupported; converting to '+'. Use bit-vector integers instead
WARNING: operator '&' unsupported; converting to '+'. Use bit-vector integers instead
WARNING: operator '&' unsupported; converting to '+'. Use bit-vector integers instead
WARNING: operator '&' unsupported; converting to '+'. Use bit-vector integers instead
WARNING: operator '&' unsupported; converting to '+'. Use bit-vector integers instead
WARNING: operator '&' unsupported; converting to '+'. Use bit-vector integers instead
WARNING: operator '&' unsupported; converting to '+'. Use bit-vector integers instead
WARNING: operator '&' unsupported; converting to '+'. Use bit-vector integers instead
WARNING: operator '&' unsupported; converting to '+'. Use bit-vector integers instead
WARNING: operator '&' unsupported; converting to '+'. Use bit-vector integers instead
WARNING: operator '&' unsupported; converting to '+'. Use bit-vector integers instead
[1;31m*** DATA RACE ERROR ***[0m

Array:   s_data[1]
T1 mode: W
T2 mode: W

-------------------
 Globals     Value 
-------------------
 blockIdx.x  0 
-------------------
 stride      1 
-------------------

---------------------
 Locals       T1  T2 
---------------------
 lo           0   0 
---------------------
 pos2         0   1 
---------------------
 threadIdx.x  0   1 
---------------------

[1;31m*** DATA RACE ERROR ***[0m

Array:   s_data[0]
T1 mode: R
T2 mode: W

-------------------
 Globals     Value 
-------------------
 blockIdx.x  0 
-------------------

-------------------------
 Locals       T1    T2 
-------------------------
 lo           2216  0 
-------------------------
 threadIdx.x  1534  1533 
-------------------------

[1;31m*** DATA RACE ERROR ***[0m

Array:   s_data[0]
T1 mode: W
T2 mode: R

-------------------
 Globals     Value 
-------------------
 blockIdx.x  0 
-------------------
 stride      2 
-------------------

-----------------------
 Locals       T1  T2 
-----------------------
 lo           0   2727 
-----------------------
 threadIdx.x  0   2045 
-----------------------

