In file included from convolutionColumnsKernel.cu:5:
./common.h:2:73: warning: explicit specialization cannot have a storage class
template<>       __device__ static __attribute__((always_inline)) float convolutionRow<-1>(float x, float y);
                            ~~~~~~~                                     ^
./common.h:4:73: warning: explicit specialization cannot have a storage class
template<>       __device__ static __attribute__((always_inline)) float convolutionColumn<-1>(float x, float y);
                            ~~~~~~~                                     ^
./common.h:19:67: warning: explicit specialization cannot have a storage class
template<> __device__ static __attribute__((always_inline)) float convolutionRow<-1>(float x, float y)
                      ~~~~~~~                                     ^
./common.h:31:67: warning: explicit specialization cannot have a storage class
template<> __device__ static __attribute__((always_inline)) float convolutionColumn<-1>(float x, float y)
                      ~~~~~~~                                     ^
./common.h:19:67: warning: unused function 'convolutionRow' [-Wunused-function]
template<> __device__ static __attribute__((always_inline)) float convolutionRow<-1>(float x, float y)
                                                                  ^
./common.h:31:67: warning: unused function 'convolutionColumn' [-Wunused-function]
template<> __device__ static __attribute__((always_inline)) float convolutionColumn<-1>(float x, float y)
                                                                  ^
6 warnings generated when compiling for sm_35.
GPUVerify kernel analyser finished with 1 verified, 0 errors
Verified: convolutionColumnsKernel.cu
- no data races within thread blocks
- no barrier divergence
- no assertion failures
(but absolutely no warranty provided)
