"/artifact/datasets/gpuverify-cav14/pug/CUDA50/2_Graphics/volumeFiltering/common.h", line 8: error: 
          this declaration has no storage class or type specifier
  template< typename T >
  ^

"/artifact/datasets/gpuverify-cav14/pug/CUDA50/2_Graphics/volumeFiltering/common.h", line 8: error: 
          expected a ";"
  template< typename T >
          ^

"/artifact/datasets/gpuverify-cav14/pug/CUDA50/2_Graphics/volumeFiltering/common.h", line 12: error: 
          this declaration has no storage class or type specifier
  template< >
  ^

"/artifact/datasets/gpuverify-cav14/pug/CUDA50/2_Graphics/volumeFiltering/common.h", line 12: error: 
          expected a ";"
  template< >
          ^

"/artifact/datasets/gpuverify-cav14/pug/CUDA50/2_Graphics/volumeFiltering/common.h", line 20: warning: 
          parsing restarts here after previous syntax error
  };
   ^

"/artifact/datasets/gpuverify-cav14/pug/CUDA50/2_Graphics/volumeFiltering/common.h", line 22: error: 
          this declaration has no storage class or type specifier
  template< >
  ^

"/artifact/datasets/gpuverify-cav14/pug/CUDA50/2_Graphics/volumeFiltering/common.h", line 22: error: 
          expected a ";"
  template< >
          ^

"/artifact/datasets/gpuverify-cav14/pug/CUDA50/2_Graphics/volumeFiltering/common.h", line 30: warning: 
          parsing restarts here after previous syntax error
  };
   ^

"/artifact/datasets/gpuverify-cav14/pug/CUDA50/2_Graphics/volumeFiltering/common.h", line 32: error: 
          this declaration has no storage class or type specifier
  template< >
  ^

"/artifact/datasets/gpuverify-cav14/pug/CUDA50/2_Graphics/volumeFiltering/common.h", line 32: error: 
          expected a ";"
  template< >
          ^

"/artifact/datasets/gpuverify-cav14/pug/CUDA50/2_Graphics/volumeFiltering/common.h", line 40: warning: 
          parsing restarts here after previous syntax error
  };
   ^

"/artifact/datasets/gpuverify-cav14/pug/CUDA50/2_Graphics/volumeFiltering/common.h", line 67: warning: 
          attribute "always_inline" ignored
  __device__ static __attribute__((always_inline))
                                   ^

"/artifact/datasets/gpuverify-cav14/pug/CUDA50/2_Graphics/volumeFiltering/common.h", line 68: error: 
          expected a ")"
  float3 mul(const float3x4 &M, const float3 &v)
                            ^

"/artifact/datasets/gpuverify-cav14/pug/CUDA50/2_Graphics/volumeFiltering/common.h", line 68: warning: 
          type qualifier on return type is meaningless
  float3 mul(const float3x4 &M, const float3 &v)
         ^

"/artifact/datasets/gpuverify-cav14/pug/CUDA50/2_Graphics/volumeFiltering/common.h", line 68: error: 
          unnamed prototyped parameters not allowed when body is present
  float3 mul(const float3x4 &M, const float3 &v)
         ^

"/artifact/datasets/gpuverify-cav14/pug/CUDA50/2_Graphics/volumeFiltering/common.h", line 71: error: 
          identifier "v" is undefined
      r.x = dot(v, make_float3(M.m[0]));
                ^

"/artifact/datasets/gpuverify-cav14/pug/CUDA50/2_Graphics/volumeFiltering/common.h", line 71: error: 
          identifier "M" is undefined
      r.x = dot(v, make_float3(M.m[0]));
                               ^

"/artifact/datasets/gpuverify-cav14/pug/CUDA50/2_Graphics/volumeFiltering/common.h", line 77: warning: 
          attribute "always_inline" ignored
  __device__ static __attribute__((always_inline))
                                   ^

"/artifact/datasets/gpuverify-cav14/pug/CUDA50/2_Graphics/volumeFiltering/common.h", line 78: error: 
          expected a ")"
  float4 mul(const float3x4 &M, const float4 &v)
                            ^

"/artifact/datasets/gpuverify-cav14/pug/CUDA50/2_Graphics/volumeFiltering/common.h", line 78: warning: 
          type qualifier on return type is meaningless
  float4 mul(const float3x4 &M, const float4 &v)
         ^

"/artifact/datasets/gpuverify-cav14/pug/CUDA50/2_Graphics/volumeFiltering/common.h", line 78: error: 
          function "mul" has already been defined
  float4 mul(const float3x4 &M, const float4 &v)
         ^

"/artifact/datasets/gpuverify-cav14/pug/CUDA50/2_Graphics/volumeFiltering/common.h", line 78: error: 
          unnamed prototyped parameters not allowed when body is present
  float4 mul(const float3x4 &M, const float4 &v)
         ^

"/artifact/datasets/gpuverify-cav14/pug/CUDA50/2_Graphics/volumeFiltering/common.h", line 81: error: 
          identifier "v" is undefined
      r.x = dot(v, M.m[0]);
                ^

"/artifact/datasets/gpuverify-cav14/pug/CUDA50/2_Graphics/volumeFiltering/common.h", line 81: error: 
          identifier "M" is undefined
      r.x = dot(v, M.m[0]);
                   ^

"/artifact/datasets/gpuverify-cav14/pug/CUDA50/2_Graphics/volumeFiltering/common.h", line 88: warning: 
          attribute "always_inline" ignored
  __device__ static __attribute__((always_inline))
                                   ^

"/artifact/datasets/gpuverify-cav14/pug/CUDA50/2_Graphics/volumeFiltering/common.h", line 89: error: 
          identifier "Ray" is undefined
  int intersectBox(Ray r, float3 boxmin, float3 boxmax, float *tnear, float *tfar)
                   ^

"/artifact/datasets/gpuverify-cav14/pug/CUDA50/2_Graphics/volumeFiltering/common.h", line 89: warning: 
          type qualifier on return type is meaningless
  int intersectBox(Ray r, float3 boxmin, float3 boxmax, float *tnear, float *tfar)
      ^

"/artifact/datasets/gpuverify-cav14/pug/CUDA50/2_Graphics/volumeFiltering/common.h", line 93: error: 
          expression must have arithmetic or pointer type
      float3 tbot = invR * (boxmin - r.o);
                            ^

"/artifact/datasets/gpuverify-cav14/pug/CUDA50/2_Graphics/volumeFiltering/common.h", line 93: error: 
          expression must have arithmetic type
      float3 tbot = invR * (boxmin - r.o);
                    ^

"/artifact/datasets/gpuverify-cav14/pug/CUDA50/2_Graphics/volumeFiltering/common.h", line 94: error: 
          expression must have arithmetic or pointer type
      float3 ttop = invR * (boxmax - r.o);
                            ^

"/artifact/datasets/gpuverify-cav14/pug/CUDA50/2_Graphics/volumeFiltering/common.h", line 94: error: 
          expression must have arithmetic type
      float3 ttop = invR * (boxmax - r.o);
                    ^

"/artifact/datasets/gpuverify-cav14/pug/CUDA50/2_Graphics/volumeFiltering/common.h", line 97: error: 
          a value of type "int" cannot be used to initialize an entity of type
          "float3"
      float3 tmin = fminf(ttop, tbot);
                    ^

"/artifact/datasets/gpuverify-cav14/pug/CUDA50/2_Graphics/volumeFiltering/common.h", line 98: error: 
          a value of type "int" cannot be used to initialize an entity of type
          "float3"
      float3 tmax = fmaxf(ttop, tbot);
                    ^

"/artifact/datasets/gpuverify-cav14/pug/CUDA50/2_Graphics/volumeFiltering/common.h", line 111: warning: 
          attribute "always_inline" ignored
  __device__ static __attribute__((always_inline))
                                   ^

"/artifact/datasets/gpuverify-cav14/pug/CUDA50/2_Graphics/volumeFiltering/common.h", line 112: warning: 
          type qualifier on return type is meaningless
  uint rgbaFloatToInt(float4 rgba)
       ^

"/artifact/datasets/gpuverify-cav14/pug/CUDA50/2_Graphics/volumeFiltering/common.h", line 118: error: 
          expected a ")"
      return (uint(rgba.w*255)<<24) | (uint(rgba.z*255)<<16) | (uint(rgba.y*255)<<8) | uint(rgba.x*255);
                   ^

"/artifact/datasets/gpuverify-cav14/pug/CUDA50/2_Graphics/volumeFiltering/common.h", line 118: error: 
          expected a ")"
      return (uint(rgba.w*255)<<24) | (uint(rgba.z*255)<<16) | (uint(rgba.y*255)<<8) | uint(rgba.x*255);
                              ^

"/artifact/datasets/gpuverify-cav14/pug/CUDA50/2_Graphics/volumeFiltering/common.h", line 118: error: 
          expected an expression
      return (uint(rgba.w*255)<<24) | (uint(rgba.z*255)<<16) | (uint(rgba.y*255)<<8) | uint(rgba.x*255);
                                    ^

"/artifact/datasets/gpuverify-cav14/pug/CUDA50/2_Graphics/volumeFiltering/common.h", line 122: error: 
          this declaration has no storage class or type specifier
  texture<VolumeType, 3, VolumeTypeInfo<VolumeType>::readMode>  volumeTex;
  ^

"/artifact/datasets/gpuverify-cav14/pug/CUDA50/2_Graphics/volumeFiltering/common.h", line 122: error: 
          expected a ";"
  texture<VolumeType, 3, VolumeTypeInfo<VolumeType>::readMode>  volumeTex;
         ^

"/artifact/datasets/gpuverify-cav14/pug/CUDA50/2_Graphics/volumeFiltering/common.h", line 124: error: 
          this declaration has no storage class or type specifier
  texture<float4, 1, cudaReadModeElementType>           transferTex;
  ^

"/artifact/datasets/gpuverify-cav14/pug/CUDA50/2_Graphics/volumeFiltering/common.h", line 124: error: 
          expected a ";"
  texture<float4, 1, cudaReadModeElementType>           transferTex;
         ^

"/artifact/datasets/gpuverify-cav14/pug/CUDA50/2_Graphics/volumeFiltering/common.h", line 126: error: 
          this declaration has no storage class or type specifier
  texture<float4, 1, cudaReadModeElementType>           transferIntegrateTex;
  ^

"/artifact/datasets/gpuverify-cav14/pug/CUDA50/2_Graphics/volumeFiltering/common.h", line 126: error: 
          expected a ";"
  texture<float4, 1, cudaReadModeElementType>           transferIntegrateTex;
         ^

"/artifact/datasets/gpuverify-cav14/pug/CUDA50/2_Graphics/volumeFiltering/common.h", line 131: error: 
          this declaration has no storage class or type specifier
  texture<float4, cudaTextureType2DLayered,cudaReadModeElementType>   transferLayerPreintTex;
  ^

"/artifact/datasets/gpuverify-cav14/pug/CUDA50/2_Graphics/volumeFiltering/common.h", line 131: error: 
          expected a ";"
  texture<float4, cudaTextureType2DLayered,cudaReadModeElementType>   transferLayerPreintTex;
         ^

"/artifact/datasets/gpuverify-cav14/pug/CUDA50/2_Graphics/volumeFiltering/common.h", line 138: error: 
          this declaration has no storage class or type specifier
  template <int TFMODE >
  ^

"/artifact/datasets/gpuverify-cav14/pug/CUDA50/2_Graphics/volumeFiltering/common.h", line 138: error: 
          expected a ";"
  template <int TFMODE >
           ^

"/artifact/datasets/gpuverify-cav14/pug/CUDA50/2_Graphics/volumeFiltering/common.h", line 164: warning: 
          parsing restarts here after previous syntax error
      eyeRay.d = normalize(make_float3(u, v, -2.0f));
                                                    ^

"/artifact/datasets/gpuverify-cav14/pug/CUDA50/2_Graphics/volumeFiltering/common.h", line 165: error: 
          this declaration has no storage class or type specifier
      eyeRay.d = mul(c_invViewMatrix, eyeRay.d);
      ^

"/artifact/datasets/gpuverify-cav14/pug/CUDA50/2_Graphics/volumeFiltering/common.h", line 165: error: 
          expected a ";"
      eyeRay.d = mul(c_invViewMatrix, eyeRay.d);
            ^

"/artifact/datasets/gpuverify-cav14/pug/CUDA50/2_Graphics/volumeFiltering/common.h", line 169: error: 
          function call is not allowed in a constant expression
      int hit = intersectBox(eyeRay, boxMin, boxMax, &tnear, &tfar);
                ^

"/artifact/datasets/gpuverify-cav14/pug/CUDA50/2_Graphics/volumeFiltering/common.h", line 169: error: 
          expression must have a constant value
      int hit = intersectBox(eyeRay, boxMin, boxMax, &tnear, &tfar);
                             ^

"/artifact/datasets/gpuverify-cav14/pug/CUDA50/2_Graphics/volumeFiltering/common.h", line 169: error: 
          identifier "boxMin" is undefined
      int hit = intersectBox(eyeRay, boxMin, boxMax, &tnear, &tfar);
                                     ^

"/artifact/datasets/gpuverify-cav14/pug/CUDA50/2_Graphics/volumeFiltering/common.h", line 169: error: 
          identifier "boxMax" is undefined
      int hit = intersectBox(eyeRay, boxMin, boxMax, &tnear, &tfar);
                                             ^

"/artifact/datasets/gpuverify-cav14/pug/CUDA50/2_Graphics/volumeFiltering/common.h", line 171: error: 
          expected a declaration
      if (!hit) return;
      ^

"/artifact/datasets/gpuverify-cav14/pug/CUDA50/2_Graphics/volumeFiltering/common.h", line 173: error: 
          expected a declaration
      if (tnear < 0.0f) tnear = 0.0f;     // clamp to near plane
      ^

"/artifact/datasets/gpuverify-cav14/pug/CUDA50/2_Graphics/volumeFiltering/common.h", line 176: error: 
          identifier "make_float4" is undefined
      float4 sum = make_float4(0.0f);
                   ^

"/artifact/datasets/gpuverify-cav14/pug/CUDA50/2_Graphics/volumeFiltering/common.h", line 176: error: 
          function call is not allowed in a constant expression
      float4 sum = make_float4(0.0f);
                   ^

"/artifact/datasets/gpuverify-cav14/pug/CUDA50/2_Graphics/volumeFiltering/common.h", line 177: error: 
          expression must have a constant value
      float t = tnear;
                ^

"/artifact/datasets/gpuverify-cav14/pug/CUDA50/2_Graphics/volumeFiltering/common.h", line 178: error: 
          expression must have struct or union type
      float3 pos = eyeRay.o + eyeRay.d*tnear;
                   ^

"/artifact/datasets/gpuverify-cav14/pug/CUDA50/2_Graphics/volumeFiltering/common.h", line 178: error: 
          expression must have struct or union type
      float3 pos = eyeRay.o + eyeRay.d*tnear;
                              ^

"/artifact/datasets/gpuverify-cav14/pug/CUDA50/2_Graphics/volumeFiltering/common.h", line 178: error: 
          expression must have a constant value
      float3 pos = eyeRay.o + eyeRay.d*tnear;
                                       ^

"/artifact/datasets/gpuverify-cav14/pug/CUDA50/2_Graphics/volumeFiltering/common.h", line 179: error: 
          expression must have struct or union type
      float3 step = eyeRay.d*tstep;
                    ^

"/artifact/datasets/gpuverify-cav14/pug/CUDA50/2_Graphics/volumeFiltering/common.h", line 179: error: 
          identifier "tstep" is undefined
      float3 step = eyeRay.d*tstep;
                             ^

"/artifact/datasets/gpuverify-cav14/pug/CUDA50/2_Graphics/volumeFiltering/common.h", line 187: error: 
          expected a declaration
      for (int i=0; i<maxSteps; i++)
      ^

"/artifact/datasets/gpuverify-cav14/pug/CUDA50/2_Graphics/volumeFiltering/common.h", line 209: warning: 
          parsing restarts here after previous syntax error
              col.w *= 0;
                        ^

"/artifact/datasets/gpuverify-cav14/pug/CUDA50/2_Graphics/volumeFiltering/common.h", line 210: error: 
          expected a declaration
          }
          ^

"/artifact/datasets/gpuverify-cav14/pug/CUDA50/2_Graphics/volumeFiltering/common.h", line 217: warning: 
          parsing restarts here after previous syntax error
          col.x *= col.w;
                        ^

"/artifact/datasets/gpuverify-cav14/pug/CUDA50/2_Graphics/volumeFiltering/common.h", line 218: error: 
          this declaration has no storage class or type specifier
          col.y *= col.w;
          ^

"/artifact/datasets/gpuverify-cav14/pug/CUDA50/2_Graphics/volumeFiltering/common.h", line 218: error: 
          expected a ";"
          col.y *= col.w;
             ^

"/artifact/datasets/gpuverify-cav14/pug/CUDA50/2_Graphics/volumeFiltering/common.h", line 219: error: 
          this declaration has no storage class or type specifier
          col.z *= col.w;
          ^

"/artifact/datasets/gpuverify-cav14/pug/CUDA50/2_Graphics/volumeFiltering/common.h", line 219: error: 
          expected a ";"
          col.z *= col.w;
             ^

"/artifact/datasets/gpuverify-cav14/pug/CUDA50/2_Graphics/volumeFiltering/common.h", line 221: error: 
          this declaration has no storage class or type specifier
          sum = sum + col*(1.0f - sum.w);
          ^

"/artifact/datasets/gpuverify-cav14/pug/CUDA50/2_Graphics/volumeFiltering/common.h", line 221: error: 
          declaration is incompatible with "float4 sum" (declared at line 176)
          sum = sum + col*(1.0f - sum.w);
          ^

"/artifact/datasets/gpuverify-cav14/pug/CUDA50/2_Graphics/volumeFiltering/common.h", line 221: error: 
          expression must have struct or union type
          sum = sum + col*(1.0f - sum.w);
                                  ^

"/artifact/datasets/gpuverify-cav14/pug/CUDA50/2_Graphics/volumeFiltering/common.h", line 221: error: 
          expression must have a constant value
          sum = sum + col*(1.0f - sum.w);
                      ^

"/artifact/datasets/gpuverify-cav14/pug/CUDA50/2_Graphics/volumeFiltering/common.h", line 221: error: 
          expression must have a constant value
          sum = sum + col*(1.0f - sum.w);
                ^

"/artifact/datasets/gpuverify-cav14/pug/CUDA50/2_Graphics/volumeFiltering/common.h", line 224: error: 
          expected a declaration
          if (sum.w > opacityThreshold)
          ^

"/artifact/datasets/gpuverify-cav14/pug/CUDA50/2_Graphics/volumeFiltering/common.h", line 227: error: 
          this declaration has no storage class or type specifier
          t += tstep;
          ^

"/artifact/datasets/gpuverify-cav14/pug/CUDA50/2_Graphics/volumeFiltering/common.h", line 227: error: 
          declaration is incompatible with "float t" (declared at line 177)
          t += tstep;
          ^

"/artifact/datasets/gpuverify-cav14/pug/CUDA50/2_Graphics/volumeFiltering/common.h", line 227: error: 
          expected a ";"
          t += tstep;
            ^

"/artifact/datasets/gpuverify-cav14/pug/CUDA50/2_Graphics/volumeFiltering/common.h", line 229: error: 
          expected a declaration
          if (t > tfar) break;
          ^

"/artifact/datasets/gpuverify-cav14/pug/CUDA50/2_Graphics/volumeFiltering/common.h", line 231: error: 
          this declaration has no storage class or type specifier
          pos += step;
          ^

"/artifact/datasets/gpuverify-cav14/pug/CUDA50/2_Graphics/volumeFiltering/common.h", line 231: error: 
          declaration is incompatible with "float3 pos" (declared at line 178)
          pos += step;
          ^

"/artifact/datasets/gpuverify-cav14/pug/CUDA50/2_Graphics/volumeFiltering/common.h", line 231: error: 
          expected a ";"
          pos += step;
              ^

"/artifact/datasets/gpuverify-cav14/pug/CUDA50/2_Graphics/volumeFiltering/common.h", line 232: error: 
          expected a declaration
      }
      ^

"/artifact/datasets/gpuverify-cav14/pug/CUDA50/2_Graphics/volumeFiltering/common.h", line 237: error: 
          identifier "y" is undefined
      d_output[y*imageW + x] = rgbaFloatToInt(sum);
               ^

"/artifact/datasets/gpuverify-cav14/pug/CUDA50/2_Graphics/volumeFiltering/common.h", line 237: error: 
          identifier "imageW" is undefined
      d_output[y*imageW + x] = rgbaFloatToInt(sum);
                 ^

"/artifact/datasets/gpuverify-cav14/pug/CUDA50/2_Graphics/volumeFiltering/common.h", line 237: error: 
          identifier "x" is undefined
      d_output[y*imageW + x] = rgbaFloatToInt(sum);
                          ^

"/artifact/datasets/gpuverify-cav14/pug/CUDA50/2_Graphics/volumeFiltering/common.h", line 237: error: 
          function call is not allowed in a constant expression
      d_output[y*imageW + x] = rgbaFloatToInt(sum);
                               ^

"/artifact/datasets/gpuverify-cav14/pug/CUDA50/2_Graphics/volumeFiltering/common.h", line 237: error: 
          expression must have a constant value
      d_output[y*imageW + x] = rgbaFloatToInt(sum);
                                              ^

"/artifact/datasets/gpuverify-cav14/pug/CUDA50/2_Graphics/volumeFiltering/common.h", line 238: error: 
          expected a declaration
  }
  ^

"/artifact/datasets/gpuverify-cav14/pug/CUDA50/2_Graphics/volumeFiltering/d_render_preint.c", line 108: warning: 
          parsing restarts here after previous syntax error
  __requires(gridDim.y == 32);
                             ^

"/artifact/datasets/gpuverify-cav14/pug/CUDA50/2_Graphics/volumeFiltering/d_render_preint.c", line 111: error: 
          variable "gridDim" is not a type name
  __requires(gridDim.z == 1);
  ^

"/artifact/datasets/gpuverify-cav14/pug/CUDA50/2_Graphics/volumeFiltering/d_render_preint.c", line 111: error: 
          expected a ")"
  __requires(gridDim.z == 1);
  ^

"/artifact/datasets/gpuverify-cav14/pug/CUDA50/2_Graphics/volumeFiltering/d_render_preint.c", line 111: warning: 
          omission of explicit type is nonstandard ("int" assumed)
  __requires(gridDim.z == 1);
  ^

"/artifact/datasets/gpuverify-cav14/pug/CUDA50/2_Graphics/volumeFiltering/d_render_preint.c", line 111: error: 
          declaration is incompatible with "void assume(int)" (declared at
          line 65)
  __requires(gridDim.z == 1);
  ^

"/artifact/datasets/gpuverify-cav14/pug/CUDA50/2_Graphics/volumeFiltering/d_render_preint.c", line 116: error: 
          this declaration has no storage class or type specifier
      d_render<TF_LAYERED_2D_PREINT>(d_output,imageW,imageH,density,brightness,transferOffset,transferScale,transferWeight);
      ^

"/artifact/datasets/gpuverify-cav14/pug/CUDA50/2_Graphics/volumeFiltering/d_render_preint.c", line 116: error: 
          expected a ";"
      d_render<TF_LAYERED_2D_PREINT>(d_output,imageW,imageH,density,brightness,transferOffset,transferScale,transferWeight);
              ^

"/artifact/datasets/gpuverify-cav14/pug/CUDA50/2_Graphics/volumeFiltering/d_render_preint.c", line 118: error: 
          expected a declaration
  }
  ^

terminate called after throwing an instance of 'rose_exception'
  what():  Errors in Processing: (frontend_failed)
/artifact/tools/pug-v0.2_x64/pug: line 3: 23106 Aborted                 (core dumped) LD_LIBRARY_PATH="$PREFIX/lib" "$PREFIX/bin/pug" "$@"
