"/artifact/datasets/gpuverify-cav14/pug/gpgpu-sim_ispass2009/LPS/laplace3d_kernel.c", line 105: warning: 
          function "kernel" was declared but never referenced
  __global__ void kernel (float* d_u1, float* d_u2, int NX,int NY,int NZ,int pitch) {
                  ^

>>>> start analysis ... 


-------------------------------------------------------
Invalid OVERFLOW_PROTECTION flag in config.txt!
Setting OVERFLOW_PROTECTION flag to on
-------------------------------------------------------

-------------------------------------------------------
Invalid NBITS value in config.txt!
Setting NBITS value to 10
-------------------------------------------------------

-------------------------------------------------------
Invalid USE_INCRSMT flag in config.txt!
Setting USE_INCRSMT flag to false
-------------------------------------------------------


-------------------------------------------------------
Invalid USE_LOOP_REFINEMENT flag in config.txt!
Setting USE_LOOP_REFINEMENT flag to true
-------------------------------------------------------


-------------------------------------------------------
Invalid SLICE_ARRAYS flag in config.txt!
Setting SLICE_ARRAYS flag to true
-------------------------------------------------------


-------------------------------------------------------
Invalid USE_ASSUMES flag in config.txt!
Setting USE_ASSUMES flag to true
-------------------------------------------------------


-------------------------------------------------------
Invalid CHK_BANK_CONFLICTS option in config.txt!
Setting CHK_BANK_CONFLICTS option to false
-------------------------------------------------------

Debug level (verbosity) set to 0


Processing function: kernel

FunctionCall: assume(((blockDim.x) ==(32)))
Assuming bdim.x == 32

FunctionCall: assume(((blockDim.y) ==(4)))
Assuming bdim.y == 4

FunctionCall: assume(((gridDim.x) ==(2)))
Assuming gdim.x == 2

Binary OP: k =(((threadIdx.x) +((threadIdx.y) *(32))))

Binary OP: halo =(k <(2 *((32 + 4) + 2)))
terminate called after throwing an instance of 'yices::type_checker_exception'
  what():  incompatible types in equality.
/artifact/tools/pug-v0.2_x64/pug: line 3: 59758 Aborted                 (core dumped) LD_LIBRARY_PATH="$PREFIX/lib" "$PREFIX/bin/pug" "$@"
