"/artifact/datasets/gpuverify-cav14/pug/gpgpu-sim_ispass2009/DG/MaxwellsGPU_VOL_Kernel3D/../common.h", line 8: error: 
          this declaration has no storage class or type specifier
  texture<float4, 1, cudaReadModeElementType> t_LIFT;
  ^

"/artifact/datasets/gpuverify-cav14/pug/gpgpu-sim_ispass2009/DG/MaxwellsGPU_VOL_Kernel3D/../common.h", line 8: error: 
          expected a ";"
  texture<float4, 1, cudaReadModeElementType> t_LIFT;
         ^

"/artifact/datasets/gpuverify-cav14/pug/gpgpu-sim_ispass2009/DG/MaxwellsGPU_VOL_Kernel3D/../common.h", line 9: error: 
          this declaration has no storage class or type specifier
  texture<float4, 1, cudaReadModeElementType> t_DrDsDt;
  ^

"/artifact/datasets/gpuverify-cav14/pug/gpgpu-sim_ispass2009/DG/MaxwellsGPU_VOL_Kernel3D/../common.h", line 9: error: 
          expected a ";"
  texture<float4, 1, cudaReadModeElementType> t_DrDsDt;
         ^

"/artifact/datasets/gpuverify-cav14/pug/gpgpu-sim_ispass2009/DG/MaxwellsGPU_VOL_Kernel3D/../common.h", line 10: error: 
          this declaration has no storage class or type specifier
  texture<float, 1, cudaReadModeElementType> t_Dr;
  ^

"/artifact/datasets/gpuverify-cav14/pug/gpgpu-sim_ispass2009/DG/MaxwellsGPU_VOL_Kernel3D/../common.h", line 10: error: 
          expected a ";"
  texture<float, 1, cudaReadModeElementType> t_Dr;
         ^

"/artifact/datasets/gpuverify-cav14/pug/gpgpu-sim_ispass2009/DG/MaxwellsGPU_VOL_Kernel3D/../common.h", line 11: error: 
          this declaration has no storage class or type specifier
  texture<float, 1, cudaReadModeElementType> t_Ds;
  ^

"/artifact/datasets/gpuverify-cav14/pug/gpgpu-sim_ispass2009/DG/MaxwellsGPU_VOL_Kernel3D/../common.h", line 11: error: 
          expected a ";"
  texture<float, 1, cudaReadModeElementType> t_Ds;
         ^

"/artifact/datasets/gpuverify-cav14/pug/gpgpu-sim_ispass2009/DG/MaxwellsGPU_VOL_Kernel3D/../common.h", line 12: error: 
          this declaration has no storage class or type specifier
  texture<float, 1, cudaReadModeElementType> t_Dt;
  ^

"/artifact/datasets/gpuverify-cav14/pug/gpgpu-sim_ispass2009/DG/MaxwellsGPU_VOL_Kernel3D/../common.h", line 12: error: 
          expected a ";"
  texture<float, 1, cudaReadModeElementType> t_Dt;
         ^

"/artifact/datasets/gpuverify-cav14/pug/gpgpu-sim_ispass2009/DG/MaxwellsGPU_VOL_Kernel3D/../common.h", line 13: error: 
          this declaration has no storage class or type specifier
  texture<float, 1, cudaReadModeElementType> t_vgeo;
  ^

"/artifact/datasets/gpuverify-cav14/pug/gpgpu-sim_ispass2009/DG/MaxwellsGPU_VOL_Kernel3D/../common.h", line 13: error: 
          expected a ";"
  texture<float, 1, cudaReadModeElementType> t_vgeo;
         ^

"/artifact/datasets/gpuverify-cav14/pug/gpgpu-sim_ispass2009/DG/MaxwellsGPU_VOL_Kernel3D/../common.h", line 14: error: 
          this declaration has no storage class or type specifier
  texture<float4, 1, cudaReadModeElementType> t_vgeo4;
  ^

"/artifact/datasets/gpuverify-cav14/pug/gpgpu-sim_ispass2009/DG/MaxwellsGPU_VOL_Kernel3D/../common.h", line 14: error: 
          expected a ";"
  texture<float4, 1, cudaReadModeElementType> t_vgeo4;
         ^

"/artifact/datasets/gpuverify-cav14/pug/gpgpu-sim_ispass2009/DG/MaxwellsGPU_VOL_Kernel3D/../common.h", line 15: error: 
          this declaration has no storage class or type specifier
  texture<float, 1, cudaReadModeElementType> t_Q;
  ^

"/artifact/datasets/gpuverify-cav14/pug/gpgpu-sim_ispass2009/DG/MaxwellsGPU_VOL_Kernel3D/../common.h", line 15: error: 
          expected a ";"
  texture<float, 1, cudaReadModeElementType> t_Q;
         ^

"/artifact/datasets/gpuverify-cav14/pug/gpgpu-sim_ispass2009/DG/MaxwellsGPU_VOL_Kernel3D/../common.h", line 16: error: 
          this declaration has no storage class or type specifier
  texture<float, 1, cudaReadModeElementType> t_partQ;
  ^

"/artifact/datasets/gpuverify-cav14/pug/gpgpu-sim_ispass2009/DG/MaxwellsGPU_VOL_Kernel3D/../common.h", line 16: error: 
          expected a ";"
  texture<float, 1, cudaReadModeElementType> t_partQ;
         ^

"/artifact/datasets/gpuverify-cav14/pug/gpgpu-sim_ispass2009/DG/MaxwellsGPU_VOL_Kernel3D/../common.h", line 17: error: 
          this declaration has no storage class or type specifier
  texture<float, 1, cudaReadModeElementType> t_surfinfo;
  ^

"/artifact/datasets/gpuverify-cav14/pug/gpgpu-sim_ispass2009/DG/MaxwellsGPU_VOL_Kernel3D/../common.h", line 17: error: 
          expected a ";"
  texture<float, 1, cudaReadModeElementType> t_surfinfo;
         ^

"/artifact/datasets/gpuverify-cav14/pug/gpgpu-sim_ispass2009/DG/MaxwellsGPU_VOL_Kernel3D/kernel.c", line 104: warning: 
          type qualifier specified more than once
    __device__ __shared__ float s_Q[p_Nfields*BSIZE];
               ^

"/artifact/datasets/gpuverify-cav14/pug/gpgpu-sim_ispass2009/DG/MaxwellsGPU_VOL_Kernel3D/kernel.c", line 105: warning: 
          type qualifier specified more than once
    __device__ __shared__ float s_facs[12];
               ^

"/artifact/datasets/gpuverify-cav14/pug/gpgpu-sim_ispass2009/DG/MaxwellsGPU_VOL_Kernel3D/kernel.c", line 113: error: 
          identifier "t_Q" is undefined
    s_Q[id] = tex1Dfetch(t_Q, m); m+=BSIZE; id+=BSIZE;
                         ^

"/artifact/datasets/gpuverify-cav14/pug/gpgpu-sim_ispass2009/DG/MaxwellsGPU_VOL_Kernel3D/kernel.c", line 122: error: 
          identifier "t_vgeo" is undefined
        s_facs[m] = tex1Dfetch(t_vgeo, 12*k+m);
                               ^

"/artifact/datasets/gpuverify-cav14/pug/gpgpu-sim_ispass2009/DG/MaxwellsGPU_VOL_Kernel3D/kernel.c", line 124: error: 
          identifier "t_vgeo" is undefined
      s_facs[n] = tex1Dfetch(t_vgeo, 12*k+n);
                             ^

"/artifact/datasets/gpuverify-cav14/pug/gpgpu-sim_ispass2009/DG/MaxwellsGPU_VOL_Kernel3D/kernel.c", line 137: error: 
          identifier "t_DrDsDt" is undefined
      float4 D = tex1Dfetch(t_DrDsDt, n+m*BSIZE);
                            ^

"/artifact/datasets/gpuverify-cav14/pug/gpgpu-sim_ispass2009/DG/MaxwellsGPU_VOL_Kernel3D/kernel.c", line 137: error: 
          a value of type "int" cannot be used to initialize an entity of type
          "float4"
      float4 D = tex1Dfetch(t_DrDsDt, n+m*BSIZE);
                 ^

"/artifact/datasets/gpuverify-cav14/pug/gpgpu-sim_ispass2009/DG/MaxwellsGPU_VOL_Kernel3D/kernel.c", line 147: error: 
          a value of type "int" cannot be assigned to an entity of type
          "float4"
      D = tex1Dfetch(t_DrDsDt, n+m*BSIZE);
        ^

"/artifact/datasets/gpuverify-cav14/pug/gpgpu-sim_ispass2009/DG/MaxwellsGPU_VOL_Kernel3D/kernel.c", line 85: warning: 
          function "kernel" was declared but never referenced
  __global__ void kernel (float* g_rhsQ) {
                  ^

terminate called after throwing an instance of 'rose_exception'
  what():  Errors in Processing: (frontend_failed)
/artifact/tools/pug-v0.2_x64/pug: line 3: 53843 Aborted                 (core dumped) LD_LIBRARY_PATH="$PREFIX/lib" "$PREFIX/bin/pug" "$@"
