scalarProdIntraGroup.opt.bc: warning: Assuming the arguments 'd_C', 'd_A', 'd_B' of 'kernel' on line 16 of scalarProdIntraGroup.cu to be non-aliased; please consider adding a restrict qualifier to these arguments

scalarProdIntraGroup.cu: error: possible read-write race on accumResult[512]:

Write by thread 0 in thread block 1 (global id 256), scalarProdIntraGroup.cu:54:29:
  accumResult[iAccum] = sum;

Read by thread 2 in thread block 1 (global id 258), possible sources are:
scalarProdIntraGroup.cu:67:33:
  accumResult[iAccum] += accumResult[stride + iAccum];

scalarProdIntraGroup.cu:67:36:
  accumResult[iAccum] += accumResult[stride + iAccum];

scalarProdIntraGroup.cu:71:38:
  if (threadIdx.x == 0) d_C[vec] = accumResult[0];


Bitwise values of parameters of 'kernel':
 vectorN = 65536
 elementN = 65536


scalarProdIntraGroup.cu: error: possible write-write race on d_C[32769]:

Write by thread 0 in thread block 1 (global id 256), scalarProdIntraGroup.cu:71:36:
  if (threadIdx.x == 0) d_C[vec] = accumResult[0];

Write by thread 17 in thread block 1 (global id 273), scalarProdIntraGroup.cu:71:36:
  if (threadIdx.x == 0) d_C[vec] = accumResult[0];

Bitwise values of parameters of 'kernel':
 vectorN = 65536
 elementN = 65536


scalarProdIntraGroup.cu: error: possible write-read race on accumResult[1]:

Read by thread 0 in thread block 1 (global id 256), scalarProdIntraGroup.cu:67:36:
  accumResult[iAccum] += accumResult[stride + iAccum];

Write by thread 1 in thread block 1 (global id 257), scalarProdIntraGroup.cu:67:33:
  accumResult[iAccum] += accumResult[stride + iAccum];

Bitwise values of parameters of 'kernel':
 vectorN = 65536
 elementN = 65536


scalarProdIntraGroup.cu: error: possible read-write race on accumResult[1]:

Write by thread 1 in thread block 1 (global id 257), scalarProdIntraGroup.cu:67:33:
  accumResult[iAccum] += accumResult[stride + iAccum];

Read by thread 38 in thread block 1 (global id 294), possible sources are:
scalarProdIntraGroup.cu:67:33:
  accumResult[iAccum] += accumResult[stride + iAccum];

scalarProdIntraGroup.cu:67:36:
  accumResult[iAccum] += accumResult[stride + iAccum];


Bitwise values of parameters of 'kernel':
 vectorN = 65536
 elementN = 65536

GPUVerify kernel analyser finished with 0 verified, 4 errors
