"/artifact/datasets/gpuverify-cav14/pug/CUDA50/3_Imaging/recursiveGaussian/d_transpose.c", line 86: warning: 
          function "kernel" was declared but never referenced
  __global__ void kernel (uint* odata, uint* idata, int width,int height) {
                  ^

>>>> start analysis ... 


-------------------------------------------------------
Invalid OVERFLOW_PROTECTION flag in config.txt!
Setting OVERFLOW_PROTECTION flag to on
-------------------------------------------------------

-------------------------------------------------------
Invalid NBITS value in config.txt!
Setting NBITS value to 10
-------------------------------------------------------

-------------------------------------------------------
Invalid USE_INCRSMT flag in config.txt!
Setting USE_INCRSMT flag to false
-------------------------------------------------------


-------------------------------------------------------
Invalid USE_LOOP_REFINEMENT flag in config.txt!
Setting USE_LOOP_REFINEMENT flag to true
-------------------------------------------------------


-------------------------------------------------------
Invalid SLICE_ARRAYS flag in config.txt!
Setting SLICE_ARRAYS flag to true
-------------------------------------------------------


-------------------------------------------------------
Invalid USE_ASSUMES flag in config.txt!
Setting USE_ASSUMES flag to true
-------------------------------------------------------


-------------------------------------------------------
Invalid CHK_BANK_CONFLICTS option in config.txt!
Setting CHK_BANK_CONFLICTS option to false
-------------------------------------------------------

Debug level (verbosity) set to 0


Processing function: kernel

FunctionCall: assume((width == 512))
Assuming width0 == 512

FunctionCall: assume((height == 512))
Assuming height0 == 512

FunctionCall: assume(((blockDim.x) ==(16)))
Assuming bdim.x == 16

FunctionCall: assume(((blockDim.y) ==(16)))
Assuming bdim.y == 16

FunctionCall: assume(((gridDim.x) ==(32)))
Assuming gdim.x == 32

FunctionCall: assume(((gridDim.y) ==(32)))
Assuming gdim.y == 32

Binary OP: (block[threadIdx.y])[threadIdx.x] =(idata[index_in])

FunctionCall: __syncthreads()
unsatisfiable

Binary OP: xIndex =(((blockIdx.y) *(16)) +(threadIdx.x))

Binary OP: yIndex =(((blockIdx.x) *(16)) +(threadIdx.y))

Binary OP: odata[index_out] =((block[threadIdx.x])[threadIdx.y])

Reaching the end of the kernel
unsatisfiable


#####################################################################

No races or synchronization errors were found.

Max instance solving time = 0.000779s
Total solving time = 0.001365s

#####################################################################

