"/artifact/datasets/gpuverify-cav14/pug/gpgpu-sim_ispass2009/NN/executeSecondLayer.c", line 90: warning: 
          function "kernel" was declared but never referenced
  __global__ void kernel (float* Layer2_Neurons_GPU, float* Layer2_Weights_GPU, float* Layer3_Neurons_GPU) {
                  ^

>>>> start analysis ... 


-------------------------------------------------------
Invalid OVERFLOW_PROTECTION flag in config.txt!
Setting OVERFLOW_PROTECTION flag to on
-------------------------------------------------------

-------------------------------------------------------
Invalid NBITS value in config.txt!
Setting NBITS value to 10
-------------------------------------------------------

-------------------------------------------------------
Invalid USE_INCRSMT flag in config.txt!
Setting USE_INCRSMT flag to false
-------------------------------------------------------


-------------------------------------------------------
Invalid USE_LOOP_REFINEMENT flag in config.txt!
Setting USE_LOOP_REFINEMENT flag to true
-------------------------------------------------------


-------------------------------------------------------
Invalid SLICE_ARRAYS flag in config.txt!
Setting SLICE_ARRAYS flag to true
-------------------------------------------------------


-------------------------------------------------------
Invalid USE_ASSUMES flag in config.txt!
Setting USE_ASSUMES flag to true
-------------------------------------------------------


-------------------------------------------------------
Invalid CHK_BANK_CONFLICTS option in config.txt!
Setting CHK_BANK_CONFLICTS option to false
-------------------------------------------------------

Debug level (verbosity) set to 0


Processing function: kernel

FunctionCall: assume(((blockDim.x) ==(5)))
Assuming bdim.x == 5

FunctionCall: assume(((blockDim.y) ==(5)))
Assuming bdim.y == 5

FunctionCall: assume(((gridDim.x) ==(50)))
Assuming gdim.x == 50

FunctionCall: assume(((gridDim.y) ==(10)))
Assuming gdim.y == 10

Binary OP: result +=(Layer2_Weights_GPU[weightBegin])

Binary OP: result +=(0)

UNARY OP: ++weightBegin
containBarrierFlag = 0
incrExpr = ++i
------------- Already normalized 
rangeExpr = ((!1^i0 >= 0) && (!1^i0 <= (25 - 1))); substExpr = 

Binary OP: result +=((Layer2_Neurons_GPU[(((windowX +(13 * windowY)) + idx)) +((((13 * 13) * 6)) *(blockIdx.y))]) *(Layer2_Weights_GPU[weightBegin +(i * 6)]))
Found loop carrying expression, try refinement!
refined exp: result4 == (result3 + ((!1^i0 - 0) * (Layer2_Neurons_GPU0[(((windowX1 + (windowY1 * 13)) + !1^idx1) + (bid.y * 1014))] * Layer2_Weights_GPU0[(weightBegin2 + (!1^i0 * 6))])))

Binary OP: result +=((Layer2_Neurons_GPU[((((169 + windowX) +(13 * windowY)) + idx)) +((((13 * 13) * 6)) *(blockIdx.y))]) *(Layer2_Weights_GPU[(weightBegin +(i * 6)) + 1]))
Found loop carrying expression, try refinement!
refined exp: result5 == (result4 + ((!1^i0 - 0) * (Layer2_Neurons_GPU0[((((169 + windowX1) + (windowY1 * 13)) + !1^idx1) + (bid.y * 1014))] * Layer2_Weights_GPU0[((weightBegin2 + (!1^i0 * 6)) + 1)])))

Binary OP: result +=((Layer2_Neurons_GPU[((((338 + windowX) +(13 * windowY)) + idx)) +((((13 * 13) * 6)) *(blockIdx.y))]) *(Layer2_Weights_GPU[(weightBegin +(i * 6)) + 2]))
Found loop carrying expression, try refinement!
refined exp: result6 == (result5 + ((!1^i0 - 0) * (Layer2_Neurons_GPU0[((((338 + windowX1) + (windowY1 * 13)) + !1^idx1) + (bid.y * 1014))] * Layer2_Weights_GPU0[((weightBegin2 + (!1^i0 * 6)) + 2)])))

Binary OP: result +=((Layer2_Neurons_GPU[((((507 + windowX) +(13 * windowY)) + idx)) +((((13 * 13) * 6)) *(blockIdx.y))]) *(Layer2_Weights_GPU[(weightBegin +(i * 6)) + 3]))
Found loop carrying expression, try refinement!
refined exp: result7 == (result6 + ((!1^i0 - 0) * (Layer2_Neurons_GPU0[((((507 + windowX1) + (windowY1 * 13)) + !1^idx1) + (bid.y * 1014))] * Layer2_Weights_GPU0[((weightBegin2 + (!1^i0 * 6)) + 3)])))

Binary OP: result +=((Layer2_Neurons_GPU[((((676 + windowX) +(13 * windowY)) + idx)) +((((13 * 13) * 6)) *(blockIdx.y))]) *(Layer2_Weights_GPU[(weightBegin +(i * 6)) + 4]))
Found loop carrying expression, try refinement!
refined exp: result8 == (result7 + ((!1^i0 - 0) * (Layer2_Neurons_GPU0[((((676 + windowX1) + (windowY1 * 13)) + !1^idx1) + (bid.y * 1014))] * Layer2_Weights_GPU0[((weightBegin2 + (!1^i0 * 6)) + 4)])))

Binary OP: result +=((Layer2_Neurons_GPU[((((845 + windowX) +(13 * windowY)) + idx)) +((((13 * 13) * 6)) *(blockIdx.y))]) *(Layer2_Weights_GPU[(weightBegin +(i * 6)) + 5]))
Found loop carrying expression, try refinement!
refined exp: result9 == (result8 + ((!1^i0 - 0) * (Layer2_Neurons_GPU0[((((845 + windowX1) + (windowY1 * 13)) + !1^idx1) + (bid.y * 1014))] * Layer2_Weights_GPU0[((weightBegin2 + (!1^i0 * 6)) + 5)])))

Binary OP: result =((1.7159 *((tanhf((0.66666667 *(result)))))))

Binary OP: Layer3_Neurons_GPU[(((((5 * 5) * blockID) +(pixelY * 5)) + pixelX)) +((1250) *(blockIdx.y))] = result

Reaching the end of the kernel
unsatisfiable


#####################################################################

No races or synchronization errors were found.

Max instance solving time = 0.000107s
Total solving time = 0.000107s

#####################################################################

