"/artifact/datasets/gpuverify-cav14/pug/CUDA50/6_Advanced/scan/scanExclusiveShared2.c", line 85: error: 
          identifier "uint" is undefined
  __global__ void kernel (uint* d_Buf, uint* d_Dst, uint* d_Src, uint N,uint arrayLength) {
                          ^

"/artifact/datasets/gpuverify-cav14/pug/CUDA50/6_Advanced/scan/scanExclusiveShared2.c", line 85: error: 
          identifier "uint" is undefined
  __global__ void kernel (uint* d_Buf, uint* d_Dst, uint* d_Src, uint N,uint arrayLength) {
                                       ^

"/artifact/datasets/gpuverify-cav14/pug/CUDA50/6_Advanced/scan/scanExclusiveShared2.c", line 85: error: 
          identifier "uint" is undefined
  __global__ void kernel (uint* d_Buf, uint* d_Dst, uint* d_Src, uint N,uint arrayLength) {
                                                    ^

"/artifact/datasets/gpuverify-cav14/pug/CUDA50/6_Advanced/scan/scanExclusiveShared2.c", line 85: error: 
          identifier "uint" is undefined
  __global__ void kernel (uint* d_Buf, uint* d_Dst, uint* d_Src, uint N,uint arrayLength) {
                                                                 ^

"/artifact/datasets/gpuverify-cav14/pug/CUDA50/6_Advanced/scan/scanExclusiveShared2.c", line 85: error: 
          identifier "uint" is undefined
  __global__ void kernel (uint* d_Buf, uint* d_Dst, uint* d_Src, uint N,uint arrayLength) {
                                                                        ^

"/artifact/datasets/gpuverify-cav14/pug/CUDA50/6_Advanced/scan/scanExclusiveShared2.c", line 109: error: 
          identifier "uint" is undefined
      __shared__ uint s_Data[2 * THREADBLOCK_SIZE];
                 ^

"/artifact/datasets/gpuverify-cav14/pug/CUDA50/6_Advanced/scan/scanExclusiveShared2.c", line 112: error: 
          identifier "uint" is undefined
      uint pos = blockIdx.x * blockDim.x + threadIdx.x;
      ^

"/artifact/datasets/gpuverify-cav14/pug/CUDA50/6_Advanced/scan/scanExclusiveShared2.c", line 116: error: 
          identifier "uint" is undefined
      uint idata = 0;
      ^

"/artifact/datasets/gpuverify-cav14/pug/CUDA50/6_Advanced/scan/scanExclusiveShared2.c", line 124: error: 
          identifier "uint" is undefined
      uint x_pos = 2 * threadIdx.x - (threadIdx.x & (arrayLength - 1));
      ^

"/artifact/datasets/gpuverify-cav14/pug/CUDA50/6_Advanced/scan/scanExclusiveShared2.c", line 129: error: 
          identifier "uint" is undefined
      for (uint offset = 1; offset < arrayLength; offset <<= 1)
           ^

"/artifact/datasets/gpuverify-cav14/pug/CUDA50/6_Advanced/scan/scanExclusiveShared2.c", line 132: error: 
          identifier "uint" is undefined
          uint t = s_Data[x_pos] + s_Data[x_pos - offset];
          ^

"/artifact/datasets/gpuverify-cav14/pug/CUDA50/6_Advanced/scan/scanExclusiveShared2.c", line 137: error: 
          identifier "uint" is undefined
      uint odata = s_Data[x_pos] - idata;
      ^

"/artifact/datasets/gpuverify-cav14/pug/CUDA50/6_Advanced/scan/scanExclusiveShared2.c", line 85: warning: 
          function "kernel" was declared but never referenced
  __global__ void kernel (uint* d_Buf, uint* d_Dst, uint* d_Src, uint N,uint arrayLength) {
                  ^

terminate called after throwing an instance of 'rose_exception'
  what():  Errors in Processing: (frontend_failed)
/artifact/tools/pug-v0.2_x64/pug: line 3: 32761 Aborted                 (core dumped) LD_LIBRARY_PATH="$PREFIX/lib" "$PREFIX/bin/pug" "$@"
