In file included from SobelCopyImage.cu:5:
./common.h:13:1: warning: unused function 'ComputeSobel' [-Wunused-function]
ComputeSobel(unsigned char ul, // upper left
^
1 warning generated when compiling for sm_35.

SobelCopyImage.cu: error: possible write-write race on pSobelOriginal[4]:

Write by thread 4 in thread block 0 (global id 4), SobelCopyImage.cu:32:19:
  pSobel[i] = min(max((tex2D(tex, (float) i, (float) blockIdx.x) * fscale), 0.f), 255.f);

Write by thread 0 in thread block 0 (global id 0), SobelCopyImage.cu:32:19:
  pSobel[i] = min(max((tex2D(tex, (float) i, (float) blockIdx.x) * fscale), 0.f), 255.f);

Bitwise values of parameters of 'kernel':
 Pitch = 512
 w = 512
 h = <irrelevant>
 fscale = 0

GPUVerify kernel analyser finished with 0 verified, 1 error
