kernel.opt.bc: warning: Assuming the arguments 'g_odata', 'g_idata' of 'kernel' on line 25 of kernel.cu to be non-aliased; please consider adding a restrict qualifier to these arguments
GPUVerify kernel analyser finished with 1 verified, 0 errors
Verified: kernel.cu
- no data races within thread blocks
- no barrier divergence
- no assertion failures
(but absolutely no warranty provided)
