status,time,memory,filename,log
0,0.28,54.8671875,gpuverify/nested-loops-1.cu,logs/faial-nested-loops-1.log
0,0.27,54.30078125,gpuverify/nested-loops-1.cu,logs/faial-nested-loops-2.log
0,0.28,54.35546875,gpuverify/nested-loops-1.cu,logs/faial-nested-loops-3.log
0,0.27,54.35546875,gpuverify/nested-loops-1.cu,logs/faial-nested-loops-4.log
0,0.27,54.50390625,gpuverify/nested-loops-1.cu,logs/faial-nested-loops-5.log
0,0.28,54.921875,gpuverify/nested-loops-2.cu,logs/faial-nested-loops-6.log
0,0.27,54.51171875,gpuverify/nested-loops-2.cu,logs/faial-nested-loops-7.log
0,0.28,54.546875,gpuverify/nested-loops-2.cu,logs/faial-nested-loops-8.log
0,0.28,54.33203125,gpuverify/nested-loops-2.cu,logs/faial-nested-loops-9.log
0,0.28,54.60546875,gpuverify/nested-loops-2.cu,logs/faial-nested-loops-10.log
0,0.28,54.59765625,gpuverify/nested-loops-3.cu,logs/faial-nested-loops-11.log
0,0.28,54.85546875,gpuverify/nested-loops-3.cu,logs/faial-nested-loops-12.log
0,0.28,54.92578125,gpuverify/nested-loops-3.cu,logs/faial-nested-loops-13.log
0,0.28,54.85546875,gpuverify/nested-loops-3.cu,logs/faial-nested-loops-14.log
0,0.28,54.93359375,gpuverify/nested-loops-3.cu,logs/faial-nested-loops-15.log
0,0.28,55.0234375,gpuverify/nested-loops-4.cu,logs/faial-nested-loops-16.log
0,0.28,55.265625,gpuverify/nested-loops-4.cu,logs/faial-nested-loops-17.log
0,0.28,54.70703125,gpuverify/nested-loops-4.cu,logs/faial-nested-loops-18.log
0,0.28,54.59765625,gpuverify/nested-loops-4.cu,logs/faial-nested-loops-19.log
0,0.28,54.75390625,gpuverify/nested-loops-4.cu,logs/faial-nested-loops-20.log
0,0.28,54.83984375,gpuverify/nested-loops-5.cu,logs/faial-nested-loops-21.log
0,0.29,54.86328125,gpuverify/nested-loops-5.cu,logs/faial-nested-loops-22.log
0,0.29,54.81640625,gpuverify/nested-loops-5.cu,logs/faial-nested-loops-23.log
0,0.31,54.8828125,gpuverify/nested-loops-5.cu,logs/faial-nested-loops-24.log
0,0.28,54.88671875,gpuverify/nested-loops-5.cu,logs/faial-nested-loops-25.log
0,0.29,54.93359375,gpuverify/nested-loops-6.cu,logs/faial-nested-loops-26.log
0,0.29,55.05859375,gpuverify/nested-loops-6.cu,logs/faial-nested-loops-27.log
0,0.29,55.0234375,gpuverify/nested-loops-6.cu,logs/faial-nested-loops-28.log
0,0.29,55.5078125,gpuverify/nested-loops-6.cu,logs/faial-nested-loops-29.log
0,0.3,54.80859375,gpuverify/nested-loops-6.cu,logs/faial-nested-loops-30.log
0,0.3,55.1953125,gpuverify/nested-loops-7.cu,logs/faial-nested-loops-31.log
0,0.3,55.0,gpuverify/nested-loops-7.cu,logs/faial-nested-loops-32.log
0,0.29,55.19140625,gpuverify/nested-loops-7.cu,logs/faial-nested-loops-33.log
0,0.29,55.56640625,gpuverify/nested-loops-7.cu,logs/faial-nested-loops-34.log
0,0.3,55.109375,gpuverify/nested-loops-7.cu,logs/faial-nested-loops-35.log
0,0.3,55.0234375,gpuverify/nested-loops-8.cu,logs/faial-nested-loops-36.log
0,0.3,54.9453125,gpuverify/nested-loops-8.cu,logs/faial-nested-loops-37.log
0,0.3,55.4453125,gpuverify/nested-loops-8.cu,logs/faial-nested-loops-38.log
0,0.32,55.015625,gpuverify/nested-loops-8.cu,logs/faial-nested-loops-39.log
0,0.3,55.265625,gpuverify/nested-loops-8.cu,logs/faial-nested-loops-40.log
0,0.3,55.31640625,gpuverify/nested-loops-9.cu,logs/faial-nested-loops-41.log
0,0.32,55.63671875,gpuverify/nested-loops-9.cu,logs/faial-nested-loops-42.log
0,0.3,55.09765625,gpuverify/nested-loops-9.cu,logs/faial-nested-loops-43.log
0,0.3,55.30078125,gpuverify/nested-loops-9.cu,logs/faial-nested-loops-44.log
0,0.3,55.19140625,gpuverify/nested-loops-9.cu,logs/faial-nested-loops-45.log
0,0.31,55.22265625,gpuverify/nested-loops-10.cu,logs/faial-nested-loops-46.log
0,0.31,55.3046875,gpuverify/nested-loops-10.cu,logs/faial-nested-loops-47.log
0,0.31,55.44140625,gpuverify/nested-loops-10.cu,logs/faial-nested-loops-48.log
0,0.31,55.54296875,gpuverify/nested-loops-10.cu,logs/faial-nested-loops-49.log
0,0.31,55.14453125,gpuverify/nested-loops-10.cu,logs/faial-nested-loops-50.log
0,0.32,55.1796875,gpuverify/nested-loops-11.cu,logs/faial-nested-loops-51.log
0,0.31,55.6015625,gpuverify/nested-loops-11.cu,logs/faial-nested-loops-52.log
0,0.31,55.484375,gpuverify/nested-loops-11.cu,logs/faial-nested-loops-53.log
0,0.31,55.5546875,gpuverify/nested-loops-11.cu,logs/faial-nested-loops-54.log
0,0.3,55.41015625,gpuverify/nested-loops-11.cu,logs/faial-nested-loops-55.log
0,0.3,56.05859375,gpuverify/nested-loops-12.cu,logs/faial-nested-loops-56.log
0,0.31,55.78125,gpuverify/nested-loops-12.cu,logs/faial-nested-loops-57.log
0,0.32,55.55859375,gpuverify/nested-loops-12.cu,logs/faial-nested-loops-58.log
0,0.31,55.47265625,gpuverify/nested-loops-12.cu,logs/faial-nested-loops-59.log
0,0.31,55.59765625,gpuverify/nested-loops-12.cu,logs/faial-nested-loops-60.log
0,0.31,55.71875,gpuverify/nested-loops-13.cu,logs/faial-nested-loops-61.log
0,0.31,55.63671875,gpuverify/nested-loops-13.cu,logs/faial-nested-loops-62.log
0,0.31,55.7734375,gpuverify/nested-loops-13.cu,logs/faial-nested-loops-63.log
0,0.31,55.76953125,gpuverify/nested-loops-13.cu,logs/faial-nested-loops-64.log
0,0.31,56.05078125,gpuverify/nested-loops-13.cu,logs/faial-nested-loops-65.log
0,0.32,56.04296875,gpuverify/nested-loops-14.cu,logs/faial-nested-loops-66.log
0,0.32,55.8515625,gpuverify/nested-loops-14.cu,logs/faial-nested-loops-67.log
0,0.32,55.85546875,gpuverify/nested-loops-14.cu,logs/faial-nested-loops-68.log
0,0.32,55.87890625,gpuverify/nested-loops-14.cu,logs/faial-nested-loops-69.log
0,0.32,56.01953125,gpuverify/nested-loops-14.cu,logs/faial-nested-loops-70.log
0,0.32,56.125,gpuverify/nested-loops-15.cu,logs/faial-nested-loops-71.log
0,0.32,56.0078125,gpuverify/nested-loops-15.cu,logs/faial-nested-loops-72.log
0,0.32,56.04296875,gpuverify/nested-loops-15.cu,logs/faial-nested-loops-73.log
0,0.32,56.08203125,gpuverify/nested-loops-15.cu,logs/faial-nested-loops-74.log
0,0.32,55.9765625,gpuverify/nested-loops-15.cu,logs/faial-nested-loops-75.log
0,0.32,56.61328125,gpuverify/nested-loops-16.cu,logs/faial-nested-loops-76.log
0,0.33,56.60546875,gpuverify/nested-loops-16.cu,logs/faial-nested-loops-77.log
0,0.33,56.09765625,gpuverify/nested-loops-16.cu,logs/faial-nested-loops-78.log
0,0.32,56.15625,gpuverify/nested-loops-16.cu,logs/faial-nested-loops-79.log
0,0.32,56.58203125,gpuverify/nested-loops-16.cu,logs/faial-nested-loops-80.log
0,0.32,56.28125,gpuverify/nested-loops-17.cu,logs/faial-nested-loops-81.log
0,0.32,56.578125,gpuverify/nested-loops-17.cu,logs/faial-nested-loops-82.log
0,0.33,56.26953125,gpuverify/nested-loops-17.cu,logs/faial-nested-loops-83.log
0,0.32,56.2421875,gpuverify/nested-loops-17.cu,logs/faial-nested-loops-84.log
0,0.32,56.203125,gpuverify/nested-loops-17.cu,logs/faial-nested-loops-85.log
0,0.33,56.6875,gpuverify/nested-loops-18.cu,logs/faial-nested-loops-86.log
0,0.33,56.609375,gpuverify/nested-loops-18.cu,logs/faial-nested-loops-87.log
0,0.33,56.5859375,gpuverify/nested-loops-18.cu,logs/faial-nested-loops-88.log
0,0.33,56.4375,gpuverify/nested-loops-18.cu,logs/faial-nested-loops-89.log
0,0.33,56.67578125,gpuverify/nested-loops-18.cu,logs/faial-nested-loops-90.log
0,0.33,57.203125,gpuverify/nested-loops-19.cu,logs/faial-nested-loops-91.log
0,0.33,57.15234375,gpuverify/nested-loops-19.cu,logs/faial-nested-loops-92.log
0,0.33,56.77734375,gpuverify/nested-loops-19.cu,logs/faial-nested-loops-93.log
0,0.33,56.6796875,gpuverify/nested-loops-19.cu,logs/faial-nested-loops-94.log
0,0.33,57.234375,gpuverify/nested-loops-19.cu,logs/faial-nested-loops-95.log
0,0.33,56.9375,gpuverify/nested-loops-20.cu,logs/faial-nested-loops-96.log
0,0.33,57.08984375,gpuverify/nested-loops-20.cu,logs/faial-nested-loops-97.log
0,0.36,57.16796875,gpuverify/nested-loops-20.cu,logs/faial-nested-loops-98.log
0,0.33,56.82421875,gpuverify/nested-loops-20.cu,logs/faial-nested-loops-99.log
0,0.33,57.22265625,gpuverify/nested-loops-20.cu,logs/faial-nested-loops-100.log
0,0.33,57.30078125,gpuverify/nested-loops-21.cu,logs/faial-nested-loops-101.log
0,0.33,57.34765625,gpuverify/nested-loops-21.cu,logs/faial-nested-loops-102.log
0,0.33,56.84375,gpuverify/nested-loops-21.cu,logs/faial-nested-loops-103.log
0,0.34,57.28125,gpuverify/nested-loops-21.cu,logs/faial-nested-loops-104.log
0,0.33,56.94140625,gpuverify/nested-loops-21.cu,logs/faial-nested-loops-105.log
0,0.34,57.4375,gpuverify/nested-loops-22.cu,logs/faial-nested-loops-106.log
0,0.34,57.25,gpuverify/nested-loops-22.cu,logs/faial-nested-loops-107.log
0,0.34,57.49609375,gpuverify/nested-loops-22.cu,logs/faial-nested-loops-108.log
0,0.34,57.1328125,gpuverify/nested-loops-22.cu,logs/faial-nested-loops-109.log
0,0.34,56.98046875,gpuverify/nested-loops-22.cu,logs/faial-nested-loops-110.log
0,0.34,57.47265625,gpuverify/nested-loops-23.cu,logs/faial-nested-loops-111.log
0,0.34,57.6015625,gpuverify/nested-loops-23.cu,logs/faial-nested-loops-112.log
0,0.34,57.9375,gpuverify/nested-loops-23.cu,logs/faial-nested-loops-113.log
0,0.34,57.40625,gpuverify/nested-loops-23.cu,logs/faial-nested-loops-114.log
0,0.34,57.453125,gpuverify/nested-loops-23.cu,logs/faial-nested-loops-115.log
0,0.34,57.6875,gpuverify/nested-loops-24.cu,logs/faial-nested-loops-116.log
0,0.34,57.5546875,gpuverify/nested-loops-24.cu,logs/faial-nested-loops-117.log
0,0.34,57.4609375,gpuverify/nested-loops-24.cu,logs/faial-nested-loops-118.log
0,0.34,57.3515625,gpuverify/nested-loops-24.cu,logs/faial-nested-loops-119.log
0,0.35,57.421875,gpuverify/nested-loops-24.cu,logs/faial-nested-loops-120.log
0,0.35,57.73828125,gpuverify/nested-loops-25.cu,logs/faial-nested-loops-121.log
0,0.35,57.6171875,gpuverify/nested-loops-25.cu,logs/faial-nested-loops-122.log
0,0.34,57.6484375,gpuverify/nested-loops-25.cu,logs/faial-nested-loops-123.log
0,0.37,57.55078125,gpuverify/nested-loops-25.cu,logs/faial-nested-loops-124.log
0,0.34,58.125,gpuverify/nested-loops-25.cu,logs/faial-nested-loops-125.log
0,0.35,58.015625,gpuverify/nested-loops-26.cu,logs/faial-nested-loops-126.log
0,0.35,57.7578125,gpuverify/nested-loops-26.cu,logs/faial-nested-loops-127.log
0,0.38,57.82421875,gpuverify/nested-loops-26.cu,logs/faial-nested-loops-128.log
0,0.35,57.84375,gpuverify/nested-loops-26.cu,logs/faial-nested-loops-129.log
0,0.36,57.87890625,gpuverify/nested-loops-26.cu,logs/faial-nested-loops-130.log
0,0.35,57.9609375,gpuverify/nested-loops-27.cu,logs/faial-nested-loops-131.log
0,0.35,57.984375,gpuverify/nested-loops-27.cu,logs/faial-nested-loops-132.log
0,0.35,58.01953125,gpuverify/nested-loops-27.cu,logs/faial-nested-loops-133.log
0,0.35,58.34765625,gpuverify/nested-loops-27.cu,logs/faial-nested-loops-134.log
0,0.35,58.0078125,gpuverify/nested-loops-27.cu,logs/faial-nested-loops-135.log
0,0.36,58.3515625,gpuverify/nested-loops-28.cu,logs/faial-nested-loops-136.log
0,0.36,58.63671875,gpuverify/nested-loops-28.cu,logs/faial-nested-loops-137.log
0,0.36,58.79296875,gpuverify/nested-loops-28.cu,logs/faial-nested-loops-138.log
0,0.36,58.7734375,gpuverify/nested-loops-28.cu,logs/faial-nested-loops-139.log
0,0.36,58.36328125,gpuverify/nested-loops-28.cu,logs/faial-nested-loops-140.log
0,0.36,58.47265625,gpuverify/nested-loops-29.cu,logs/faial-nested-loops-141.log
0,0.37,58.71484375,gpuverify/nested-loops-29.cu,logs/faial-nested-loops-142.log
0,0.36,58.9453125,gpuverify/nested-loops-29.cu,logs/faial-nested-loops-143.log
0,0.36,58.6015625,gpuverify/nested-loops-29.cu,logs/faial-nested-loops-144.log
0,0.37,58.8515625,gpuverify/nested-loops-29.cu,logs/faial-nested-loops-145.log
0,0.37,58.77734375,gpuverify/nested-loops-30.cu,logs/faial-nested-loops-146.log
0,0.37,59.078125,gpuverify/nested-loops-30.cu,logs/faial-nested-loops-147.log
0,0.37,58.7265625,gpuverify/nested-loops-30.cu,logs/faial-nested-loops-148.log
0,0.37,58.84765625,gpuverify/nested-loops-30.cu,logs/faial-nested-loops-149.log
0,0.37,58.6953125,gpuverify/nested-loops-30.cu,logs/faial-nested-loops-150.log
0,0.38,58.85546875,gpuverify/nested-loops-31.cu,logs/faial-nested-loops-151.log
0,0.38,58.83984375,gpuverify/nested-loops-31.cu,logs/faial-nested-loops-152.log
0,0.38,58.83984375,gpuverify/nested-loops-31.cu,logs/faial-nested-loops-153.log
0,0.38,58.8125,gpuverify/nested-loops-31.cu,logs/faial-nested-loops-154.log
0,0.37,58.8515625,gpuverify/nested-loops-31.cu,logs/faial-nested-loops-155.log
0,0.37,59.20703125,gpuverify/nested-loops-32.cu,logs/faial-nested-loops-156.log
0,0.37,59.05078125,gpuverify/nested-loops-32.cu,logs/faial-nested-loops-157.log
0,0.37,59.50390625,gpuverify/nested-loops-32.cu,logs/faial-nested-loops-158.log
0,0.37,59.29296875,gpuverify/nested-loops-32.cu,logs/faial-nested-loops-159.log
0,0.38,59.3671875,gpuverify/nested-loops-32.cu,logs/faial-nested-loops-160.log
0,0.37,59.546875,gpuverify/nested-loops-33.cu,logs/faial-nested-loops-161.log
0,0.37,59.59375,gpuverify/nested-loops-33.cu,logs/faial-nested-loops-162.log
0,0.37,59.62109375,gpuverify/nested-loops-33.cu,logs/faial-nested-loops-163.log
0,0.37,59.53515625,gpuverify/nested-loops-33.cu,logs/faial-nested-loops-164.log
0,0.38,59.8125,gpuverify/nested-loops-33.cu,logs/faial-nested-loops-165.log
0,0.38,59.5625,gpuverify/nested-loops-34.cu,logs/faial-nested-loops-166.log
0,0.38,60.046875,gpuverify/nested-loops-34.cu,logs/faial-nested-loops-167.log
0,0.38,59.45703125,gpuverify/nested-loops-34.cu,logs/faial-nested-loops-168.log
0,0.39,60.0,gpuverify/nested-loops-34.cu,logs/faial-nested-loops-169.log
0,0.38,59.99609375,gpuverify/nested-loops-34.cu,logs/faial-nested-loops-170.log
0,0.39,59.7421875,gpuverify/nested-loops-35.cu,logs/faial-nested-loops-171.log
0,0.39,59.83984375,gpuverify/nested-loops-35.cu,logs/faial-nested-loops-172.log
0,0.39,60.16015625,gpuverify/nested-loops-35.cu,logs/faial-nested-loops-173.log
0,0.39,60.3203125,gpuverify/nested-loops-35.cu,logs/faial-nested-loops-174.log
0,0.39,59.859375,gpuverify/nested-loops-35.cu,logs/faial-nested-loops-175.log
0,0.4,59.9140625,gpuverify/nested-loops-36.cu,logs/faial-nested-loops-176.log
0,0.4,59.99609375,gpuverify/nested-loops-36.cu,logs/faial-nested-loops-177.log
0,0.39,60.1640625,gpuverify/nested-loops-36.cu,logs/faial-nested-loops-178.log
0,0.39,59.984375,gpuverify/nested-loops-36.cu,logs/faial-nested-loops-179.log
0,0.4,60.53125,gpuverify/nested-loops-36.cu,logs/faial-nested-loops-180.log
0,0.41,60.43359375,gpuverify/nested-loops-37.cu,logs/faial-nested-loops-181.log
0,0.41,60.5625,gpuverify/nested-loops-37.cu,logs/faial-nested-loops-182.log
0,0.41,60.38671875,gpuverify/nested-loops-37.cu,logs/faial-nested-loops-183.log
0,0.4,60.1328125,gpuverify/nested-loops-37.cu,logs/faial-nested-loops-184.log
0,0.42,60.0,gpuverify/nested-loops-37.cu,logs/faial-nested-loops-185.log
0,0.42,60.61328125,gpuverify/nested-loops-38.cu,logs/faial-nested-loops-186.log
0,0.43,60.69921875,gpuverify/nested-loops-38.cu,logs/faial-nested-loops-187.log
0,0.41,60.62109375,gpuverify/nested-loops-38.cu,logs/faial-nested-loops-188.log
0,0.41,60.671875,gpuverify/nested-loops-38.cu,logs/faial-nested-loops-189.log
0,0.4,60.8125,gpuverify/nested-loops-38.cu,logs/faial-nested-loops-190.log
0,0.41,60.83984375,gpuverify/nested-loops-39.cu,logs/faial-nested-loops-191.log
0,0.41,60.94921875,gpuverify/nested-loops-39.cu,logs/faial-nested-loops-192.log
0,0.41,60.86328125,gpuverify/nested-loops-39.cu,logs/faial-nested-loops-193.log
0,0.41,60.78125,gpuverify/nested-loops-39.cu,logs/faial-nested-loops-194.log
0,0.41,60.9921875,gpuverify/nested-loops-39.cu,logs/faial-nested-loops-195.log
0,0.4,61.0625,gpuverify/nested-loops-40.cu,logs/faial-nested-loops-196.log
0,0.41,61.3828125,gpuverify/nested-loops-40.cu,logs/faial-nested-loops-197.log
0,0.41,61.35546875,gpuverify/nested-loops-40.cu,logs/faial-nested-loops-198.log
0,0.44,60.96484375,gpuverify/nested-loops-40.cu,logs/faial-nested-loops-199.log
0,0.41,61.0,gpuverify/nested-loops-40.cu,logs/faial-nested-loops-200.log
0,0.41,61.69140625,gpuverify/nested-loops-41.cu,logs/faial-nested-loops-201.log
0,0.42,61.734375,gpuverify/nested-loops-41.cu,logs/faial-nested-loops-202.log
0,0.41,61.21875,gpuverify/nested-loops-41.cu,logs/faial-nested-loops-203.log
0,0.41,61.6875,gpuverify/nested-loops-41.cu,logs/faial-nested-loops-204.log
0,0.42,61.46484375,gpuverify/nested-loops-41.cu,logs/faial-nested-loops-205.log
0,0.42,61.72265625,gpuverify/nested-loops-42.cu,logs/faial-nested-loops-206.log
0,0.42,62.234375,gpuverify/nested-loops-42.cu,logs/faial-nested-loops-207.log
0,0.42,61.6640625,gpuverify/nested-loops-42.cu,logs/faial-nested-loops-208.log
0,0.42,61.6015625,gpuverify/nested-loops-42.cu,logs/faial-nested-loops-209.log
0,0.42,61.62109375,gpuverify/nested-loops-42.cu,logs/faial-nested-loops-210.log
0,0.43,61.6875,gpuverify/nested-loops-43.cu,logs/faial-nested-loops-211.log
0,0.43,62.34765625,gpuverify/nested-loops-43.cu,logs/faial-nested-loops-212.log
0,0.43,62.08984375,gpuverify/nested-loops-43.cu,logs/faial-nested-loops-213.log
0,0.43,62.45703125,gpuverify/nested-loops-43.cu,logs/faial-nested-loops-214.log
0,0.42,61.9453125,gpuverify/nested-loops-43.cu,logs/faial-nested-loops-215.log
0,0.42,62.12109375,gpuverify/nested-loops-44.cu,logs/faial-nested-loops-216.log
0,0.43,62.1171875,gpuverify/nested-loops-44.cu,logs/faial-nested-loops-217.log
0,0.42,62.25,gpuverify/nested-loops-44.cu,logs/faial-nested-loops-218.log
0,0.42,62.56640625,gpuverify/nested-loops-44.cu,logs/faial-nested-loops-219.log
0,0.43,62.14453125,gpuverify/nested-loops-44.cu,logs/faial-nested-loops-220.log
0,0.44,62.41015625,gpuverify/nested-loops-45.cu,logs/faial-nested-loops-221.log
0,0.43,62.84375,gpuverify/nested-loops-45.cu,logs/faial-nested-loops-222.log
0,0.43,62.73828125,gpuverify/nested-loops-45.cu,logs/faial-nested-loops-223.log
0,0.45,62.67578125,gpuverify/nested-loops-45.cu,logs/faial-nested-loops-224.log
0,0.43,62.328125,gpuverify/nested-loops-45.cu,logs/faial-nested-loops-225.log
0,0.43,62.68359375,gpuverify/nested-loops-46.cu,logs/faial-nested-loops-226.log
0,0.44,62.390625,gpuverify/nested-loops-46.cu,logs/faial-nested-loops-227.log
0,0.43,62.53515625,gpuverify/nested-loops-46.cu,logs/faial-nested-loops-228.log
0,0.45,63.16796875,gpuverify/nested-loops-46.cu,logs/faial-nested-loops-229.log
0,0.43,62.328125,gpuverify/nested-loops-46.cu,logs/faial-nested-loops-230.log
0,0.44,63.4921875,gpuverify/nested-loops-47.cu,logs/faial-nested-loops-231.log
0,0.43,63.08203125,gpuverify/nested-loops-47.cu,logs/faial-nested-loops-232.log
0,0.44,62.77734375,gpuverify/nested-loops-47.cu,logs/faial-nested-loops-233.log
0,0.44,63.171875,gpuverify/nested-loops-47.cu,logs/faial-nested-loops-234.log
0,0.44,63.0859375,gpuverify/nested-loops-47.cu,logs/faial-nested-loops-235.log
0,0.45,63.25390625,gpuverify/nested-loops-48.cu,logs/faial-nested-loops-236.log
0,0.45,63.23046875,gpuverify/nested-loops-48.cu,logs/faial-nested-loops-237.log
0,0.46,63.7265625,gpuverify/nested-loops-48.cu,logs/faial-nested-loops-238.log
0,0.45,63.7421875,gpuverify/nested-loops-48.cu,logs/faial-nested-loops-239.log
0,0.45,63.34375,gpuverify/nested-loops-48.cu,logs/faial-nested-loops-240.log
0,0.46,64.0234375,gpuverify/nested-loops-49.cu,logs/faial-nested-loops-241.log
0,0.45,63.9765625,gpuverify/nested-loops-49.cu,logs/faial-nested-loops-242.log
0,0.46,63.578125,gpuverify/nested-loops-49.cu,logs/faial-nested-loops-243.log
0,0.47,63.59375,gpuverify/nested-loops-49.cu,logs/faial-nested-loops-244.log
0,0.46,63.3828125,gpuverify/nested-loops-49.cu,logs/faial-nested-loops-245.log
0,0.46,64.2265625,gpuverify/nested-loops-50.cu,logs/faial-nested-loops-246.log
0,0.46,63.86328125,gpuverify/nested-loops-50.cu,logs/faial-nested-loops-247.log
0,0.47,64.1953125,gpuverify/nested-loops-50.cu,logs/faial-nested-loops-248.log
0,0.46,64.21484375,gpuverify/nested-loops-50.cu,logs/faial-nested-loops-249.log
0,0.46,64.25,gpuverify/nested-loops-50.cu,logs/faial-nested-loops-250.log
