"/artifact/datasets/gpuverify-cav14/pug/CUDA50/6_Advanced/mergeSort/bitonicMergeElementaryIntervalsKernel.c", line 82: warning: 
          attribute "always_inline" ignored
  __device__ static __attribute__((always_inline)) int iDivUp(int a, int b)
                                   ^

"/artifact/datasets/gpuverify-cav14/pug/CUDA50/6_Advanced/mergeSort/bitonicMergeElementaryIntervalsKernel.c", line 82: warning: 
          type qualifier on return type is meaningless
  __device__ static __attribute__((always_inline)) int iDivUp(int a, int b)
                                                       ^

"/artifact/datasets/gpuverify-cav14/pug/CUDA50/6_Advanced/mergeSort/bitonicMergeElementaryIntervalsKernel.c", line 87: warning: 
          attribute "always_inline" ignored
  __device__ static __attribute__((always_inline)) int getSampleCount(int dividend)
                                   ^

"/artifact/datasets/gpuverify-cav14/pug/CUDA50/6_Advanced/mergeSort/bitonicMergeElementaryIntervalsKernel.c", line 87: warning: 
          type qualifier on return type is meaningless
  __device__ static __attribute__((always_inline)) int getSampleCount(int dividend)
                                                       ^

"/artifact/datasets/gpuverify-cav14/pug/CUDA50/6_Advanced/mergeSort/bitonicMergeElementaryIntervalsKernel.c", line 93: warning: 
          attribute "always_inline" ignored
  __device__ static __attribute__((always_inline)) void ComparatorExtended(
                                   ^

"/artifact/datasets/gpuverify-cav14/pug/CUDA50/6_Advanced/mergeSort/bitonicMergeElementaryIntervalsKernel.c", line 94: error: 
          expected a ")"
      int &keyA,
          ^

"/artifact/datasets/gpuverify-cav14/pug/CUDA50/6_Advanced/mergeSort/bitonicMergeElementaryIntervalsKernel.c", line 101: warning: 
          parsing restarts here after previous syntax error
  )
  ^

"/artifact/datasets/gpuverify-cav14/pug/CUDA50/6_Advanced/mergeSort/bitonicMergeElementaryIntervalsKernel.c", line 93: error: 
          unnamed prototyped parameters not allowed when body is present
  __device__ static __attribute__((always_inline)) void ComparatorExtended(
                                                        ^

"/artifact/datasets/gpuverify-cav14/pug/CUDA50/6_Advanced/mergeSort/bitonicMergeElementaryIntervalsKernel.c", line 106: error: 
          identifier "flagA" is undefined
          (!(flagA || flagB) && ((keyA > keyB) == arrowDir)) ||
             ^

"/artifact/datasets/gpuverify-cav14/pug/CUDA50/6_Advanced/mergeSort/bitonicMergeElementaryIntervalsKernel.c", line 106: error: 
          identifier "flagB" is undefined
          (!(flagA || flagB) && ((keyA > keyB) == arrowDir)) ||
                      ^

"/artifact/datasets/gpuverify-cav14/pug/CUDA50/6_Advanced/mergeSort/bitonicMergeElementaryIntervalsKernel.c", line 106: error: 
          identifier "keyA" is undefined
          (!(flagA || flagB) && ((keyA > keyB) == arrowDir)) ||
                                  ^

"/artifact/datasets/gpuverify-cav14/pug/CUDA50/6_Advanced/mergeSort/bitonicMergeElementaryIntervalsKernel.c", line 106: error: 
          identifier "keyB" is undefined
          (!(flagA || flagB) && ((keyA > keyB) == arrowDir)) ||
                                         ^

"/artifact/datasets/gpuverify-cav14/pug/CUDA50/6_Advanced/mergeSort/bitonicMergeElementaryIntervalsKernel.c", line 106: error: 
          identifier "arrowDir" is undefined
          (!(flagA || flagB) && ((keyA > keyB) == arrowDir)) ||
                                                  ^

"/artifact/datasets/gpuverify-cav14/pug/CUDA50/6_Advanced/mergeSort/bitonicMergeElementaryIntervalsKernel.c", line 114: error: 
          identifier "valA" is undefined
          t = valA;
              ^

"/artifact/datasets/gpuverify-cav14/pug/CUDA50/6_Advanced/mergeSort/bitonicMergeElementaryIntervalsKernel.c", line 115: error: 
          identifier "valB" is undefined
          valA = valB;
                 ^

"/artifact/datasets/gpuverify-cav14/pug/CUDA50/6_Advanced/mergeSort/bitonicMergeElementaryIntervalsKernel.c", line 212: error: 
          too many arguments in function call
              s_key[pos +      0], s_val[pos +      0], s_inf[pos +      0],
                                   ^

"/artifact/datasets/gpuverify-cav14/pug/CUDA50/6_Advanced/mergeSort/bitonicMergeElementaryIntervalsKernel.c", line 127: warning: 
          function "kernel" was declared but never referenced
  __global__ void kernel (int* d_DstKey, int* d_DstVal, int* d_SrcKey, int* d_SrcVal, int* d_LimitsA, int* d_LimitsB, int stride,int N) {
                  ^

terminate called after throwing an instance of 'rose_exception'
  what():  Errors in Processing: (frontend_failed)
/artifact/tools/pug-v0.2_x64/pug: line 3: 27398 Aborted                 (core dumped) LD_LIBRARY_PATH="$PREFIX/lib" "$PREFIX/bin/pug" "$@"
